<?xml version="1.0" encoding="UTF-8" standalone="no"?>
<!-- Created with Inkscape (http://www.inkscape.org/) -->

<svg
   xmlns:dc="http://purl.org/dc/elements/1.1/"
   xmlns:cc="http://creativecommons.org/ns#"
   xmlns:rdf="http://www.w3.org/1999/02/22-rdf-syntax-ns#"
   xmlns:svg="http://www.w3.org/2000/svg"
   xmlns="http://www.w3.org/2000/svg"
   xmlns:xlink="http://www.w3.org/1999/xlink"
   xmlns:sodipodi="http://sodipodi.sourceforge.net/DTD/sodipodi-0.dtd"
   xmlns:inkscape="http://www.inkscape.org/namespaces/inkscape"
   width="196.3365mm"
   height="74.503418mm"
   viewBox="0 0 196.3365 74.503418"
   version="1.1"
   id="svg8"
   inkscape:version="0.92.5 (2060ec1f9f, 2020-04-08)"
   sodipodi:docname="fig_ondes.svg"
   inkscape:export-filename="/home/poulpe/Enseignement/fiches_focus_online/BriquesDeGeomatique/figures/fig_ondes.png"
   inkscape:export-xdpi="179"
   inkscape:export-ydpi="179">
  <defs
     id="defs2">
    <marker
       inkscape:stockid="StopM"
       orient="auto"
       refY="0"
       refX="0"
       id="StopM"
       style="overflow:visible"
       inkscape:isstock="true">
      <path
         id="path1151"
         d="M 0,5.65 V -5.65"
         style="fill:none;fill-opacity:0.75;fill-rule:evenodd;stroke:#000000;stroke-width:1.00000003pt;stroke-opacity:1"
         transform="scale(0.4)"
         inkscape:connector-curvature="0" />
    </marker>
    <marker
       inkscape:stockid="Arrow1Lstart"
       orient="auto"
       refY="0"
       refX="0"
       id="Arrow1Lstart"
       style="overflow:visible"
       inkscape:isstock="true">
      <path
         id="path979"
         d="M 0,0 5,-5 -12.5,0 5,5 Z"
         style="fill:#000000;fill-opacity:1;fill-rule:evenodd;stroke:#000000;stroke-width:1.00000003pt;stroke-opacity:1"
         transform="matrix(0.8,0,0,0.8,10,0)"
         inkscape:connector-curvature="0" />
    </marker>
    <marker
       inkscape:isstock="true"
       style="overflow:visible"
       id="marker1435"
       refX="0"
       refY="0"
       orient="auto"
       inkscape:stockid="Arrow1Mend">
      <path
         transform="matrix(-0.4,0,0,-0.4,-4,0)"
         style="fill:#ff0000;fill-opacity:1;fill-rule:evenodd;stroke:#ff0000;stroke-width:1.00000003pt;stroke-opacity:1"
         d="M 0,0 5,-5 -12.5,0 5,5 Z"
         id="path1433"
         inkscape:connector-curvature="0" />
    </marker>
    <marker
       inkscape:stockid="Arrow1Mstart"
       orient="auto"
       refY="0"
       refX="0"
       id="Arrow1Mstart"
       style="overflow:visible"
       inkscape:isstock="true">
      <path
         id="path985"
         d="M 0,0 5,-5 -12.5,0 5,5 Z"
         style="fill:#000000;fill-opacity:1;fill-rule:evenodd;stroke:#000000;stroke-width:1.00000003pt;stroke-opacity:1"
         transform="matrix(0.4,0,0,0.4,4,0)"
         inkscape:connector-curvature="0" />
    </marker>
    <marker
       inkscape:stockid="Arrow1Mend"
       orient="auto"
       refY="0"
       refX="0"
       id="marker1295"
       style="overflow:visible"
       inkscape:isstock="true"
       inkscape:collect="always">
      <path
         id="path1293"
         d="M 0,0 5,-5 -12.5,0 5,5 Z"
         style="fill:#000000;fill-opacity:1;fill-rule:evenodd;stroke:#000000;stroke-width:1.00000003pt;stroke-opacity:1"
         transform="matrix(-0.4,0,0,-0.4,-4,0)"
         inkscape:connector-curvature="0" />
    </marker>
    <marker
       inkscape:stockid="Arrow1Mend"
       orient="auto"
       refY="0"
       refX="0"
       id="Arrow1Mend"
       style="overflow:visible"
       inkscape:isstock="true">
      <path
         id="path988"
         d="M 0,0 5,-5 -12.5,0 5,5 Z"
         style="fill:#000000;fill-opacity:1;fill-rule:evenodd;stroke:#000000;stroke-width:1.00000003pt;stroke-opacity:1"
         transform="matrix(-0.4,0,0,-0.4,-4,0)"
         inkscape:connector-curvature="0" />
    </marker>
    <marker
       inkscape:isstock="true"
       style="overflow:visible"
       id="marker1435-2"
       refX="0"
       refY="0"
       orient="auto"
       inkscape:stockid="Arrow1Mend">
      <path
         inkscape:connector-curvature="0"
         transform="matrix(-0.4,0,0,-0.4,-4,0)"
         style="fill:#ff0000;fill-opacity:1;fill-rule:evenodd;stroke:#ff0000;stroke-width:1.00000003pt;stroke-opacity:1"
         d="M 0,0 5,-5 -12.5,0 5,5 Z"
         id="path1433-9" />
    </marker>
    <marker
       inkscape:isstock="true"
       style="overflow:visible"
       id="marker1435-2-2"
       refX="0"
       refY="0"
       orient="auto"
       inkscape:stockid="Arrow1Mend">
      <path
         inkscape:connector-curvature="0"
         transform="matrix(-0.4,0,0,-0.4,-4,0)"
         style="fill:#ff0000;fill-opacity:1;fill-rule:evenodd;stroke:#ff0000;stroke-width:1.00000003pt;stroke-opacity:1"
         d="M 0,0 5,-5 -12.5,0 5,5 Z"
         id="path1433-9-7" />
    </marker>
    <marker
       inkscape:isstock="true"
       style="overflow:visible"
       id="marker1435-2-2-9"
       refX="0"
       refY="0"
       orient="auto"
       inkscape:stockid="Arrow1Mend">
      <path
         inkscape:connector-curvature="0"
         transform="matrix(-0.4,0,0,-0.4,-4,0)"
         style="fill:#ff0000;fill-opacity:1;fill-rule:evenodd;stroke:#ff0000;stroke-width:1.00000003pt;stroke-opacity:1"
         d="M 0,0 5,-5 -12.5,0 5,5 Z"
         id="path1433-9-7-3" />
    </marker>
    <marker
       inkscape:isstock="true"
       style="overflow:visible"
       id="marker1435-0"
       refX="0"
       refY="0"
       orient="auto"
       inkscape:stockid="Arrow1Mend">
      <path
         inkscape:connector-curvature="0"
         transform="matrix(-0.4,0,0,-0.4,-4,0)"
         style="fill:#00d956;fill-opacity:1;fill-rule:evenodd;stroke:#00d956;stroke-width:1.00000003pt;stroke-opacity:1"
         d="M 0,0 5,-5 -12.5,0 5,5 Z"
         id="path1433-6" />
    </marker>
    <marker
       inkscape:isstock="true"
       style="overflow:visible"
       id="marker1435-0-6"
       refX="0"
       refY="0"
       orient="auto"
       inkscape:stockid="Arrow1Mend">
      <path
         inkscape:connector-curvature="0"
         transform="matrix(-0.4,0,0,-0.4,-4,0)"
         style="fill:#00d956;fill-opacity:1;fill-rule:evenodd;stroke:#00d956;stroke-width:1.00000003pt;stroke-opacity:1"
         d="M 0,0 5,-5 -12.5,0 5,5 Z"
         id="path1433-6-1" />
    </marker>
    <marker
       inkscape:isstock="true"
       style="overflow:visible"
       id="marker1435-0-7"
       refX="0"
       refY="0"
       orient="auto"
       inkscape:stockid="Arrow1Mend">
      <path
         inkscape:connector-curvature="0"
         transform="matrix(-0.4,0,0,-0.4,-4,0)"
         style="fill:#00d956;fill-opacity:1;fill-rule:evenodd;stroke:#00d956;stroke-width:1.00000003pt;stroke-opacity:1"
         d="M 0,0 5,-5 -12.5,0 5,5 Z"
         id="path1433-6-9" />
    </marker>
    <marker
       inkscape:isstock="true"
       style="overflow:visible"
       id="marker1435-0-7-0"
       refX="0"
       refY="0"
       orient="auto"
       inkscape:stockid="Arrow1Mend">
      <path
         inkscape:connector-curvature="0"
         transform="matrix(-0.4,0,0,-0.4,-4,0)"
         style="fill:#00d956;fill-opacity:1;fill-rule:evenodd;stroke:#00d956;stroke-width:1.00000003pt;stroke-opacity:1"
         d="M 0,0 5,-5 -12.5,0 5,5 Z"
         id="path1433-6-9-2" />
    </marker>
    <marker
       inkscape:stockid="StopM"
       orient="auto"
       refY="0"
       refX="0"
       id="StopM-7"
       style="overflow:visible"
       inkscape:isstock="true">
      <path
         inkscape:connector-curvature="0"
         id="path1151-8"
         d="M 0,5.65 V -5.65"
         style="fill:none;fill-opacity:0.75;fill-rule:evenodd;stroke:#000000;stroke-width:1.00000003pt;stroke-opacity:1"
         transform="scale(0.4)" />
    </marker>
    <marker
       inkscape:stockid="StopM"
       orient="auto"
       refY="0"
       refX="0"
       id="marker8435"
       style="overflow:visible"
       inkscape:isstock="true">
      <path
         inkscape:connector-curvature="0"
         id="path8433"
         d="M 0,5.65 V -5.65"
         style="fill:none;fill-opacity:0.75;fill-rule:evenodd;stroke:#000000;stroke-width:1.00000003pt;stroke-opacity:1"
         transform="scale(0.4)" />
    </marker>
    <marker
       inkscape:stockid="StopM"
       orient="auto"
       refY="0"
       refX="0"
       id="StopM-7-6"
       style="overflow:visible"
       inkscape:isstock="true">
      <path
         inkscape:connector-curvature="0"
         id="path1151-8-1"
         d="M 0,5.65 V -5.65"
         style="fill:none;fill-opacity:0.75;fill-rule:evenodd;stroke:#000000;stroke-width:1.00000003pt;stroke-opacity:1"
         transform="scale(0.4)" />
    </marker>
    <marker
       inkscape:stockid="StopM"
       orient="auto"
       refY="0"
       refX="0"
       id="marker9946"
       style="overflow:visible"
       inkscape:isstock="true">
      <path
         inkscape:connector-curvature="0"
         id="path9944"
         d="M 0,5.65 V -5.65"
         style="fill:none;fill-opacity:0.75;fill-rule:evenodd;stroke:#000000;stroke-width:1.00000003pt;stroke-opacity:1"
         transform="scale(0.4)" />
    </marker>
  </defs>
  <sodipodi:namedview
     id="base"
     pagecolor="#ffffff"
     bordercolor="#666666"
     borderopacity="1.0"
     inkscape:pageopacity="0.0"
     inkscape:pageshadow="2"
     inkscape:zoom="1.6804589"
     inkscape:cx="371.02961"
     inkscape:cy="140.79386"
     inkscape:document-units="mm"
     inkscape:current-layer="layer2"
     showgrid="false"
     inkscape:window-width="1920"
     inkscape:window-height="1011"
     inkscape:window-x="0"
     inkscape:window-y="0"
     inkscape:window-maximized="1"
     fit-margin-top="0"
     fit-margin-left="0"
     fit-margin-right="0"
     fit-margin-bottom="0" />
  <metadata
     id="metadata5">
    <rdf:RDF>
      <cc:Work
         rdf:about="">
        <dc:format>image/svg+xml</dc:format>
        <dc:type
           rdf:resource="http://purl.org/dc/dcmitype/StillImage" />
        <dc:title></dc:title>
      </cc:Work>
    </rdf:RDF>
  </metadata>
  <g
     inkscape:label="fond"
     inkscape:groupmode="layer"
     id="layer1"
     sodipodi:insensitive="true"
     style="display:none"
     transform="translate(-4.9412499,-8.9150127)">
    <g
       transform="matrix(1.3341814,0,0,1.3341814,-29.22416,-112.42657)"
       id="layer1-3"
       inkscape:label="Calque 1">
      <image
         width="67.207077"
         height="50.648808"
         preserveAspectRatio="none"
         xlink:href="data:image/png;base64,iVBORw0KGgoAAAANSUhEUgAAAVkAAAEECAYAAACC4kfyAAAABHNCSVQICAgIfAhkiAAAIABJREFU eJztneF1qzqzhid3fQ0oJZASlBLkEkgJuARcApSAS4AS4hKgBChBlKD7I2fYWAgMGJCAedZinbOT 2AZLejUzGo0+lFIKCIIgiFX4P9s3QBAEcWRIZAmCIFaERJbYlOv1Ct/f31AUxez3qKoKsiyDqqoW vLNxn+kKWZYtcj9LtAcxDIkssSlVVUFRFJMEsq5ryLIMbrcbfH5+ws/PD3DOwfO8Fe/0H/f7Hb6+ vuDn5we+v7+hrutNPncI3/ehqir4/PyEy+UCcRzPmnTmtAcxDRJZwkmKooA4juFyuTTCGscxhGEI eZ5vJrB1XcPtdgPOOXDOoSgKuN1um3z2K8IwhN/f3+Yev76+4PPzE263G2RZ5sRkQACAIogNEUIo AFBpmj79XEqp0jRVQRAoxpgCgKeLc67yPN/8fpMkUWEYPv0bAJSUcvN76UNKqcIw7Hxn+L1FUdT7 3fW1B7Ec/7Mj7QTxZ61mWQaPx2NUTPB6va5+T5xzSJKk+Xdd1xCGYfPvIAiaeGgQBE+vLYpik3vs gzHWsV6Lomi+W8YYCCFACAG+7wNjrPm7rTyDM0IiS1ihKAq43+/weDxG//0WtIUHAJ4EFvF933g/ GN90FYxt46TWniSqqgLOucW7Oy4ksoQVOOcQRREA/K2Uo+j2xRGDIOhYjmugi6wJzjncbrcnixcA QAgBeZ6vdWuDVFUF1+u19/trW7BktW4LiSxhHd/3wfd9iKKoSZXCUAKCApwkySghXBN0y+u6froX xpgVazDLso7Acs5BCAGcc/B9f/N7Iv5BIktYoc+a8jzvyUVvx23xv0mSWBWOOI4BAODxeFi9j7qu 4Xq9QpZlwBgD3/cbi3WqtUrW7XqQyBJWGBsDxNQpgH8xRdyIEATB5lZtVVVwv98B4G8CsCWyOOFw ziEMw7ctaIrJrgeJLLEbGGNPsVkbeaBoxQLA6EW7NcD4KuE+tBmB2C02rdgkSaxmEtiOSxPjIZEl rLDHGCBasWhRCyGcqmfwDntsj71A4QJiU5Ikgbqudzeo21Yspp5xzne/59/zPIrFrszhRRbjduRe 2UdPedL/7TK6FQvwJ7J7tWRxXERR1Pw/jZV1+FDqeCcjYA4jrkZXVdVsKeScA2OMOtKG4E4obIuq qhoLClOOANwd3FVVwdfXFwD8WeLthbfPz0/Y0xCqqupp51fbEsc2CYIAPM9ztj32hhWRRbcLABbb xYOi+ng8msu0+swYA8/zmpxC6kzrUNd142K398+bwDQtVwf39XqF+/0OjDGQUj797vv7G8IwfFrp v16vnd1gtimKosk1RqHtA3NugyCgUMIS2KhKA60qQUtQlqUKw9BYvWnoYoypIAisVHc6Mu+0RxiG TlW4Ksuyub8kSTq/D8NQcc6be8ZKYq6A1c0455PaAtuDqnO9z+5FNs9z5fv+YEfhnCvGWO+gt1VG 74gMtQdjTPm+r6IoUr7v97ZHEASqLEvbj6KUUiqKoubeTeR53vweywaaxNgGUsqmNGPfuIiiSKVp qsIwbO7fJLQuTXx7Y7ciK6VUeZ4bOwbnXAkhVBRFqixLJaV8qleKokuz9rL0tYcQQiVJ8tQWUkpV lqVKksT4Gt/3rQutlLLpJ0PC2a7l6vv+hnc4TJqmnX6Owopt0aZvTDHGVBRFJLQz2a3ImlwgFEpT B0Lagtv3eupM0zENTs75qO8T20MXBBeEdix5njvjDfV9nyiUr9qjLEsVBEFn4iOhncfuRLavA81x +U2uLQntNPomrDntYXofl0IHe0BKqaIoMgrs1PcxnbbgWsx8D+xKZPsWVIQQs60I06zNGHMmruY6 pgnvnfbI85yEdiYosEvFuPvej4R2GrsR2aU7UJs+oaUY7TAmy9P3/bfd5iFXl+gnSZKn722JbA2T ZUxjYxq7EFnTKil2oKUsHHSP2p2Jc04WVA9Syk6oZckYqi60jDFnYp4uUpZlZ8JbamLC8dduD9/3 adIbyS5E1jTg1nDnTXGoqbGsM2DyKtZYpErTtPMZNLC7mPrt0i696TMopDYO50W2LMvOqvWarqMe EyQLqos+6a2VZyyl7IRxyE19xuTlCSFW8cDyPCfvYgZOi6xp9tzCmtGtNCEEWVD/oU96ay8SlmXZ EXRqi39sLXwmD4baYxinRVafobeKkZZl2Yk30sKL2bIMgmDV74Xc1H5McfG1+6k+NmgR7DXOiqxt 10RfSCDXqBsj3Wo7sh7CoQXJ7eLiJvSxuVZ44ig4KbI2ZmjTPdCK6j9MseotLRjTguRZ20Ipu0aI yaOhBeJ+nBRZWzO0ji72Z92k4MKkZ/Iszmo9uRDOsu1p7gnnRNa1xtPv52yu6par16/QwxVrx4Nd xZXFJ71fnNnTG8IpkTW5IUmSWG04U+wrDENr97M1Lk16UspOZsPZrCeXUgzJ0xuHUyLravK5lPKU Cy99K/s22+TMiy4uZlqc3dMbgzMi6/pqvj4BnCHQr286cCFf+MyLLqYJxoX20D29sy9K6gyKLBbx ba8i53n+9kyli2zfdlaXGspkzbo0CSyNyRV0JR/yjNaTy/mprhtIthkU2bb1hgRB8PbKri6yexk0 phn7qOhWrCuhG6XOaT25GkpD9EWwsy5KmhgUWTy/qC2yeCSHEGL+h7Yaw2WLSecssdk9LDCdKaVr D5ai3mdciBe7wv/BAJxzUH9C3PyMMQZBEMDj8Xg62nsueP57+zOFEG+/71q0760oCsiyzOLdrAMe qY74vg+e51m8oy6e5z0dJ1/XNdzv98GjrveKfqR6GIbOtQdjDKIoejrO/X6/Q1VVFu/KEeYoM1qz fSd4vgK0nEvYgRWLmAqWHMmC2oPVhOiehcv3Opc9WexnT3fsY1Bk8bgXU+wRV3jnuATtRmhfLp1X 30dfPPAI7PHZ9NjxkWKBe2wP06TguuG0NpNjsggG4jnn0z/UILB7skJMBUuOMLD3sgDZxhQLPMqg 3mthHL3mhwupZjYZjMkOxVN83weAv3jREnEXF+NMfXDOgXPe/LuqqqcY5h4xxTR933+KsblIXyxw 77HZuq4hy7KnWGwQBLsYI77vP61dPB6PQ65djGZIgYcsWaVUY0FMdWFAs2L3MkO3cTEx/B32vJNq D3nWU3FxI8gU9tyflma2JQsAzaz6rtXg4ur1KzzPa6x5gO6K/J6o6xput1vTjmgd7qVNGGMdqzvL st1as7pXgRk9rnsVbTjnEIZh8289Q+JUDCnwK0sWrYepObMA3ZgsXXTRRddSl0tZDW9Zsjiz7tVi IAiCWJtBkX3lLrbdGYIgCKLLW5Ys8o7Iqv92lO35iqLo6ZmiKLJ+T2OuPM+fsiQYY5DnufX7eueS Uj7FygEA0jS1fl9jrrIsD9ceti59TNrkLUsWF3r2skCyFr7vPw2OLMt2sZ1QTxEKw/DpOfYIYwzC MHya+OM4dj6kZUrZ2lNaI9HPW5Ys/l63HM6GnmlQFIXzuZp4j4jrNSOmwDl/qmuwhxoTVVVBHMfN vznnu8hTJl4z25KtqgrqugbG2O6tnyXQrVmXi2P0pQgdqR31lKc9tQfAPjaCEOOYbcmiZXB2Kxbx PO/JTXW5KpS+A0cIcbh2xPZAXLZmTe2xt7xYYgA1E9xTPWcXB7Ty2Y7EXuqw7q3y2Vz0YiUunmZh qqfs2j0S7zFoyfaBAfq97KXeCn1nTl3Xzi266PV79X3mR2IPsXLdit3j7kfiBXOUWQjxVl1LOKgl q5TbxyS7dJz0VrhsuZMVew4mW7JoCVF6iRl9H70rsdm+FKEjLXaZwBMU2u3hSl2DLMuerFjyDA/K VFUOw/DtfcFwYEsW0Yst27Zm9apOe6x8Nhf9GHEXrFmTV3GW9jgbVlTuDCJrOqbGVqm6PM+ddZm3 wqVjg3TRB9h/aUain1kLX8Rr+lKItnZTMVzRXuwKguCwi1194KIkom/G2BL9EFJMoaOUrYNiQ9nh BJasUuYUoi2tJ9MZUWcunuzCoYRnXHw8O2TJrogphWhLa/bxeDxt1URr7qyLK6ZjxLdMscOts1Sf 4GTYUHY4iSWrlPnY6i3iobrVBhT3a7C1YUT3Ks60+HhmyJJdGawKhdR1DY/HY1XrCeOwusVEWzX/ 0FO6tkixK4qi41UkSUJW7BmwoexwIktWKfN22zWt2SRJyGIaYOtNAKbPO1t2x5khkd2IrU4f1T+H BrSZrU5TNS0++r5PYZsTQSK7Ebo1AwAqCILFBpuUsrNyDRSH7WWrXFXTpEfZBOeCRHZDdOtpyYGt D2a0mChM0I/eHktb/SaBtb3zj9geEtmNMYnhO0IrpVRJknTeUwhBFtMLTK78EuUQpZTGdg7DkLyK E0IiawGThROG4WSrE0WCLNj5mMIG7whtX5sEQUBtclJIZC3QZ33iQHxl7WD8NQzDp9fTYJ5HWZad ePmc0AEJLGGCRNYiJqFljKkgCFSe50pK2QiulFKVZanSNFVBEHReR4tc75Hnea/QjvlO+wQ2iiIS 2JPzoZRS3ezZdfn4+Gj+38LHO0WWZXC9Xo3J8IwxEEIAY2xwEwNjDKIooiIjb4LbXtvFW3AziRCi 2TjQ3shQ1zUURdEp+gIAkCQJtQkBJLIOkGVZZ0/7WDjnEIbh4Q5CtIVJaBHOOXieB0KIpvg3Hjba nvxQmNs7/YjzQiLrCDho8fSCoW2eaOFyzpv/EstRVRXc7/dZ223Rq2gXoiHODYmsY9R1DVVVwePx eAoPVFUFQojmYoyRG7oiGJ6J4xiqqno56QH8WbpYq5fahkBIZB0GB3Zd182gpcG7Le1JD2OvCIYO 2ifM2myfdj/Z4/sflf/Z+FBypcZBwmofxlgTi8UFSJz8XGgfFP6iKMD3/VGx+bqu4Xa7QVEUk+L5 eHw5hammYcWSJQjin5XMGBtd8hDDGHhqdF3X4Ps+JEkyWuwvl8uTRZ6m6WihresartcrZFnWrA3Q 8Tkv2DxpjCAIpdTfzj/4bwv0q78Lw7BT/GfOhgms15CmqUrTVHHOFWNs1r3rOcGccxWG4ct7ws00 Z8kfthIuIAiin6qqGku1bXG2aRf97kv9M1nIj8cDfn9/G1dfCAFfX19QFMWT+49Wdh+e50GSJE85 3kVRPN1L28pt38fj8YCfnx8QQsDv7++Lb+MA2FZ5gjgreZ4/FfPp28k39zJZyCYrMwxDFUVR5++W ug9o1efI8/zpuc8AWbIEYYm2pcg5hyiKgHPeSd8zMSaOa/q9KfbKOYc4jp82T3ieN2pha0x6Wzv1 0PM8yLLs5fseCRJZgnAEPE0Ys28wc8AUNqjrGoQQEEXR25/r+z78/Pw8/YxzDnmeD77udrs9nVuG tEWVMhBIZAnCWTjnzbZpzCrAzAI8zvzxeECSJG+JGW4h1uOyfRRFAdfrtYm/MsbA9/2njTLEP+i0 WoKwxJSTalHIkiQBKSWUZQlRFAFjDC6Xi9GiHMvtdgMA6F1kaxPHMVwul2b7cFmWIKWcVAznbCf0 kiVLEJYYWr1/hed5T0VosO7F1EJB7foMrwoUZVkGnueBlHLeTf/HO8+9R0hkCeIAzK3ChlasEOKl JUuV3uZB4QKCOCltKzZJEgCAyVXHiNeQyBKEJWzHJtGKDYKgKXazRXqV7efeGhJZgrCEzdhk24rF uC7nfJN7OltMlkSWIE6IbsUCjIvLEtMhkSWIk2GyYgH+WbK6pXm2HVpLs7tSh1jP8ywnA+i1S4+M Xqv16M+MGwywVu1WscrPz0+o6xqCIGgWvJCfnx/wPK/ZSVbXNfz8/CxWyKV9+KTnec2zHxrbxRPG UpaliqKoKc0mhBh9XPMekVKqNE2V7/tKCKGSJDnFszLGFGNMcc5VkiSHLIeHpf7CMGwKwrSPgl+T duEX03ebJElzlDm2iV48Zg7Yxjh+8R5831/9mW3jvMjiefZ6LU28OOeHEtt2ZzQ9axRFh3rWJEk6 A09/5iNNMPjMfc+LYrvW5CKEUACggiDovb/2vTHG3r6Xvv7cvsIwPEwb6zgtsmVZKt/3R5VSC8PQ 9u2+zdjn5ZwfYvaPomh0ab8jDEIppQqCYNTzcs4XF1opZVPWcOi98zxXvu8vYmUOTSj6lSTJW5/l KlZENkmS5uoDO0TfbG9quD0L7ZQBuNYg3BKs0G96rj6rZ++DEF1xvS8LIYzfhe/7u55Y8jw3tqUQ wuidzjnpYQ9YEdn2F9uHqUPizIouNbo+7WuvjRRFkbEzpmnaFHQ+yiCUUnYs9nYMFmOWevvueWIx TSoYg5VSNmGxo0wsJqMBPTB8XpPnJoTYZZ8ewkmRLcuy0yFN7qLJ2t3jQDQNQD32ihOL/nd7HIT6 BNoX/ijLsiO0QRDsbhCaxMT0HBiv3Xt/Vqp7skKflVqWZcei3WOfHsI5kTXNgEMWm5Sy00h7ChuY OtnQ/euDkDG2q/isaaIY8j5ME9DeBqFuoQ4tJkkpOxOL7/sb3/F7mIykoTYzCfKe+vQrnBNZ0xf+ aiafOnBdoc+lGrLUTK/Zi4tlChO8skxNbvSeBuGcScL0mj30Z6XM3uWrsNae+/QYnBJZk1U61mrR B+IeGmnuYDItKCyRy7g2eIDelAlUKbM47yEePWdSwdfpHsse+rNS3T49dkLUrd89TaSvcEpkdSt2 SscyCbTLjWSavafkwJpidy4PQpMbPMXtNw1Cl59XKbPgjI2v7q0/I7qxM2Xy1/t0Xy7v3nBGZE2z /tROpYu0y430zgBUyixaLg9C/XmnTgomN9R1F1oXnKmxZL0/u+6t6BPDnD69t4l0DM6IrG6pzLHM 9jT7vzPjI+9Y/ltistrnLE7q4QZXn1ep7oLmnJ1Te7Pe9faZGtLZ40Q6BmeqcOnnzI89lK0NHjbX xsUKQlVVPd2X6b7HoB+5XBSFs5Xtl3hez/M6z+tqaT4sgoLMOcWVMdY5PdbV9sViN22mjmFTv3C5 T4/FCZGt67ojhkKIWe8VBMFTw7bLurnCEgMQ4K9TBkHw9L4uTiqmCXTOEdb6IHT1eeu6bo7ZRuYa De1xoPcb19An0rlt3P6eXJ1EJ2HDfAYtXPBuvK6NHtt1bZXS5Dq/4xKZwiwuJa8vHTtewg1fG91t fqc/v+uCb4Ueupqb26v3FxfbdypOWLK6S6Bbo1NAawdfX9d1UwXeBXTrS7dWpqK/vigKp6ydqqqe 7odz/lbdVM/zOtasS9aOybqeY8UieohE9wpcQS/0Pfdk2714K1OwLrJLiw7An/vdHsiPx8MZ4dEH Sdvdn4MpjuVSiCTLsrdj7Tp6/9A/wzbtUMHc+HMblycVAPMYnhMqQPTwmWvtOxkb5jNormPb3V1q xVh3X1wolWfaQrtEKMPVdK41apPi+7rqUuq7D5fYEut6VsUSmUFtXO3Pc7FuyS6RVWCCc95ZAHOB tkXt+/4iR47oC2AAbiwYVFX11LZhGC72vC66lLgwpffnd8HjuhHXVtyX9lZc7c9zsS6yS7oZbTzP 6zSU7Y6phyzCMFzsfCN9UnHBxdIHxrthoDYuPi9AN1SwxDObsgxcER3TvSzxzK627xysi6yeyrTk YXJtwbbdMU3W1pIHyOkH8elW5NaY4nRLPq8pZ9b2INQ/fymvzPRersTd9bSydxc2EdOCrr64thes i2ybJTslgFuzoS7y+r29i2s5labBt/TzuuapLL2o2Ub38kxHd9tAH1PvZAa12cvGojEMiuz9fofL 5fKUAlUUBVwuF7hcLs3PrtcrXK/Xt25kyVBB+z3bs6pNa6d93DXA8hMKvmcbm51SF/g1nlfvLzbj 7qYNCEtPKq5lGayRGdRGb18XvJU5DIosNmS7Mauq6vxMCAH3+x3iOJ59I0uHCgDMO6JsWXdrxicR /Qx7myGD9ve89OBrv68rnopuWS5tuQO4l9q09jPrhpcraZhTGRRZz/MgiqInoeKcQxRFEIZh8zPf 90EIAXEcz3ZhlliFNaEPbhuz/9rxyTYurEKbrLq10F1yWy60PqGtYbkDQCfubgs0wNrPPHd7eB8u Wu+zWCoXDPNSx5QXhFb+G6xcXUjP1bRRd7Usy822Ruo1OW2Ux9Ofd83jgPQcUhtH0+hbpdfK23Wp StW7ZQ3H4nqO8BgWW/jCoh/3+33yDLtUsLwP26uUW8QnERcW+0zVmNbE9vMCdNt4jfbtWwyy8bz6 dumlrVjExSySqQyK7O12g4+Pj6dFrizL4OPjAz4+Pjp/j67bUGzW9AWtOQhdWKVsi84aC3xtPM+z msq19gKQjv68NuJ2JsFZC73/2HKf3y1rOIW9hwwGRdb0pQ0tTmHnmhKPWzM+iZh2f20lPHrt2C3Q O+XWIrv2AlAb0+Lmlp7KUmUNx+JCnFL/zDUNB73gE4D9Bb+pvMwuaP8XYDjY3l7d7hMW/fVruRlt 9FSuLdE7wxpZFG1MK/lbpjbpor52KAigm+qztejomRRreiqm9t1adExZOmtPpHsOGYyyZNtf4CuB wC+jT4xtiCyAPZdjjb3sr7CZ2qRPrmsKDqKnrm35vLrlrIcv1sBU/nBL9D695PZwEybrfVfpXEOr YriSKYRoftaubmUCz65qv6aNXh2LLrroomvJa81sljksGpMFeL21cQvLhiAIwhUWjckCvI7N2IqN EgRB2GDxmKxJmIdQf8eSb3Llef70LEIIkFKu8llSyo7VXpblZs+qfz5jbLVnVUpBWZZP3y1j7NDP i/2pTRRFmz6vHt9f+/uWUnYW3fI83+yZx15RFI3Snq0YZcm2eWXJ4u/XzBWcy5aJzaZUpq3RSz2u mdpkyirY2mvRF0fWTuVa6oTlOZjyv9deADPlA5Nn+prFY7LYsV388resqK+LzlJ1NsdiSvVZaxD2 5YpuSV/q2pqTqJ4rukWWTJutd/eZMmW2fuY9snhMFmc6Fy1ZgG06pkl0lqwtOpatqjZtWQBnCD2V a800n622lQ6hf96az6v36bUqqx2RRWOyONC2ttqmYAoZLO1WmkTH1vehF3peQ2RNR7q78LxrhoO2 3FY6hL7bbS1vRZ9U9AmN6GdUqcO268cY65Q6RLCBbVhtY9nikDaT6Nhi7dMSTAN761ABslWdCv17 XHuXVx+m511rYtHbeO0NCIdCLQSWFGSMvfxbaCUO22DN8odSSuX7/tMz2jzOWC8Vt3SZxa1K3o1l i7KS+hHYa5bqfMUWpTz1o+xtt/HeWKzUIS4yuJY+0cda5Q9NZ3nZDJ2svQVzixMBprL2llOTp2Lz mdcOCemWu434855ZRGTruobb7QZCCKdDBUjfyvsSnXOLs7ymsmZVLn0xzfbz6q770qlcpowUW+ER gPWrcm1dZeyILCKy9/sdGGOQJMkSb7cJ+my8VMfc4iyvKayZymVKY3LhefWJfslULtc8FYBuX146 dU1fxKWt8dNYRGQ9z4M8z613timYTrJ9F1dSmXT0+5hzeoUJF9KYTJiqci2FHipwQXBMfXkp611/ H9/3dzXOXWARkd3rF7/0xgRddFyITwKY63G+a832ZRW48LwA66Q21XXdOfXDhYmFMdbJ9lliYsHn dSVTZq8stvC1N9YofqwPZNsLIojJhV5iY4JutdsOFSBrnYVlWuRz5ZnXOv1DDwft0ZiyzWlFFmDZ Wgb6MTMuiQ7An8XVvp93F/oej8dm51rNwZRV8a7o6O/hyiQK0O1vS1jvpgL7xHROLbKm86HmdkxT motLLJ2o73KoAFkyHFRV1VOowLVJ1BQyeNeapVoFC2EjORcsb0ZooyeWz0nmllI2p0jglabpSnc8 nyWeValuAryryel5ni92n0mSPLVvEATWNiD0IaVUQohFNsK4tslkz5zakgXoLgrpcbexbHns91x0 62vuApjJbXYxVsc5X8RTMRVHcSlUgPSlr83B1UXcPUIiu0Asy3SYnosd0hQymOpSupaM/4olFsBM xVFcnFQAlqsyt4dw0F44vcgCdDtQHMeTrFnXdj0NYVoAm/KsLtRRnYJpAWzq8+ppWy5asYhpnWGq Nev6Iu7usBGjAIdiskqZi7oEQTDqtaZiITYLwoxBPzFYCDEq3ialVEEQOB+b1NHjqVOeV3/tGgVY lsYUix7bJ03rC2sU2TkTJLL/kabp5I65V9HRFzVg5DHKc74jF9CrSAGAiqLo5et0sRr7OtuYjAYh xKh+qbcxOLqIuydIZFtEUdSxWoYsHt0i3IvoSCknC6ZJqMIwdH5CQfSSj4yxQfEoy7KzUj9WqFwg z/PJE6npmfdgNLgOiWwLUwpMFEXGTmbqxEmSWLjreZjcwr5JxfS3Y11uVzB5HX2iKaXsTLh7mUDb TDECjtDGrkIiq9HnIrY7W1mWHXdsj3Erk3UaBEHnWY8gOEqNs8ZRYPU+sKcJFBkzkUopeycVChMs A4mshqnDYeeMokjled4R2L2KjlLmScX3fZXnuYqiqCNKe4lL9mGKOXLOVZqmvc+7Z5fZNLHg8+IE erQ2dg0SWQOm2NTQtUcrB+mbVPquPVrsOlOed+8usyn+3jYO+tp4z8/sGiSyPZgsVlMn7YvZ7okx QssYO8zgGzuxHOV5lTJb8KZLDxcR70Mi+4I0TY1WLWNs1xasDuaE6q4jY0wFQaDyPN/9ZNIGLTxT 2/q+f8h4ZJ7nvR6aEEKlaXqoNnaFD6WUgo35+Pho/t/Cx08Gt81mWdbsfnF16+y74LPigXx4vMoR nxXg3/PiLrYjty3Avx17uPMNt1q7vDV671gR2ev12vz/ns4FI45NXdeHFVcd3AZ+lue1iRWRJQiC OAtUIIYgCGJFSGQJgiBWhESWIAhiRUhkCYIgVoREliAIYkVIZAmCIFaERJYgCGJFSGQJYqfMOSCR 2B4SWYvQICHe4fF4wM/PD8Rx/HSaLuEWJLITuV6v8P39PatT43Ha1+sVbrfbCne3b7Ism3SS7Nnx fR+SJIGiKOD7+xs+Pz/h5+dn8jHgeOQ5TforYbE4zS7BKkZjqzTpxaC9yIOsAAAOjklEQVSp4nwX /WDHI1U324q+YuRhGL7sb1P7NDGN/9mT92OCFZ3walsHQghI05SKcmjEcQxVVYEQAoqigOv12lTD MoEVwoh/eJ4HSZLA9XptvpuiKJ48LiEECCHA9/3e75ZYHhLZmbQ7aZZlUBQF3O/33sEfBAEEQXBq d5gxZhzcj8cD8jwHz/Ogrmu4XC5wv98hiiLj+1yv16Y0ITEenPhvt1tT4jAIgub3JLzrQCI7k/v9 /lSHdMzf3+/3le/KbYQQ8Pv7a/w5DnDGGIRhCNfrtVdkPc8Dzvmq97pXXln5WA8ZLdq2V1VVFX2v K0AiOxMUhizL4PF4vFwIo87bbynpYur7PlyvV6iqyvgaqkFs5na7QRzHnZ+jqAohqB9agET2DTjn TafFivMouro1UVUV/P7+UicfiRACHo/HkztLmME4Nk70GApAYaU1ALtQCtdMdAsLO3aapiClhDzP IYoiEEIAwJ8If39/Gy0Nogtj7NTx67HEcQyXywUYYxBFEZRlCVJKSJKkEw54BcVk14Es2Zm8il+h lRuGIQD8WxyL4xiyLIM0TalT91BVFdzvd7L6X5BlGXieB1LKRd6PYrLrQJbsRvi+D1EUgZQS0jRt DrIjuqC1Twnyw9ABiPuARNYCnudBEARkyRpAKxahVC1i71C4YCYkkOuAViymcpG1vx3Up9eBLNmZ 0OBfnrYVi4uGWZZZvqvzQH16HciSJZyhbcUGQQB1XVN1KWL3kCU7EdxtRK7VsuhWLMCf2HLOSWhX hvr0unwopZTtm9gDuMptWu1mjFHC95tcr1e43+/AGHtKScJ99pgKR7zPq77c/i/xPiSyGu2OV9d1 UwMW04nae8OxI7a3LLY7KXXUcVRVBV9fXwDwt2W2vcsryzKI4xjyPG9+hjm0lNP5mrag4q7Eoiig qqomBlvXddNXPc9r+jJ+vyS870Ei+x8ooFj4ZW6OZlt4OedNjQPqoP30WbEAf+3y+fn5JL6XywWS JCH3tgfsy0VRNJW38OdTwcppnPMm7ZD68kRsFLFNkqS5bCOlVGmaNoWLl74YYyoIApXnuZJS2n5c 55BSNsWm+/qD7/tNEWrGmGKMbXyX+6EsSxWGYaeA91KXEEKlaUp9eQJWLNmPj4/m/y18fEOWZXC/ 30dZrTh7o3UKAI2lAPDaSsAVcyyYTNbAH3EcN3HXvu2hVVXB9/d349ZSoZ0udV3D/X6HOI5H92W0 UBljTSbH2ILoQggIgoAK0IzAish+fn42DWlDZLHAdt9ZSOgieZ7XVDPCAd7uUHq8a4x7hos4VHZu GugC0wT1DMZZhw5TxP7cDmHpv8f3wv9iXx4SXqxNS9t7X2DDfG67MltSlqWKoqjXleKcqzRNVVmW Sko5yyXC1435rCRJyO0iZoFhrvbZaO1LD1O905dfhdQYYyqKIlWW5QpPun9OIbJSykHBW7OTvIqR CSEoXkuMRkqp8jxXQghjn2KMKd/3V+lTUkqVJMmgsJPYdrEusmuLC3bIvk4RhuEmnSLPc+X7fq/Y rjUwiOPgyoSNYkte2jgOLbJ5nvfO9kEQbD7jtq2QoXAFQeiUZdnbb2yt+A+JPlq1JLSWRLbtbqwh dH0zbTtOZZOheBpjjISWeCLPc2NfccFixPWHIAiMYmvDmHEN6yK7RgcxxV9dtRJN98oYcyKHmLBP n8CGYWjdWNDp89I4587d65YcSmTLsmwS1/fUyH1WLblb5yZN094J2NV+gVZtn4fm6n2viXWRXcqV 6JtFhRC7cFf67p/crfMxFO5y2VhA+rJ5XJ8g1sK6yL7baYbim3sTqL7FjSAITtcxzwoK1N68MR1c 5O0LdZypP+9eZPtSSfbqave5W77v72rCIKbTJ7B78cZ0cFGsL057lvCBFZFtf+lzRXbIpXJxgWsK Ukqj0GIeJHE8jjy5vorTHp1diuxRXKohhp7xDB3zTPRZe0dyq/v68xnitLsT2b5Z8YhW3pGtdeKP vrjlXsNdQwytnxzxeZFdiWxfitYRXKoh+oSWcmn3jWlH4hksu7Nl0lgX2bEW2VDDHLlDIn1bhI8+ II/KUA7sGegzmI4otFZEtv3ljhHZM7oYJkyuJRa5OdP3sGf6QkBHWk8Yy5EX+9r0imxZlirP86eG x5iK3hnwZzjQ9dfptEV26O/w887oUpkYSok5ogVwNF7tSDxbf1ZqOJPmKP25V2TDMGweFsnzvPkS nt5Es0rTNB20Uttf6pAlOxSLPGOHRM4am94zQzsSz2bB6vRlHhwlFNgrsvjQnPPmZyiefSLb7ixY VNj0Jb0KF9Cq+msol3Y/9IW7aFL8R9+YP4KHtlpMFgU5CILO74Ys2TPkwC4F5dK6TV+4CxcsiS5J khzOcFh14QvdI30maotsu7OdKQd2KcjqdxcKd01naGvxXjWgV2TTNFVRFHVEMIoiFYbh09/iz3Qx xVlJt2Yx3tsWWYozvgcJrTvQxPceR8vAeBmTbS98TYnJ6r9rz9y6yFL1qWU4a3K7S1C4azlMoYO9 lHts83/Qg+mcdc/z+v4cAACqqur8DM94z7Ks9zU/Pz/weDyefh5FEURR1JwJT7yGcw5JkgDnvPlZ Xddwu93gfr8b25RYjqqq4Ha7we12e/q5EKLTLsRrgiCAJEmeNKCua7her1AUxX76c5/6vptdgKDV 6vt+52fw38wE2kwVRdESE8hpOdu2RRegcNd6mDy0PXkGLy3Z9iwyx5LF15h+1/4c/KwoiiAIgsHP IYZBixa9COR+v0Mcx71tQcyjKAq4Xq8dby0IAoii6OW4IYbhnMPv7++TJ1AURa937Bx96rtUTNa0 gcEUs6KLLrroWvrSF+lt8NKSbVuacyxZspoIgjgzvSKLYYJ2uOCVYJpEmFwlgiDOzOrZBfizviyB KIpA/aWS0bXiJaXsrNRiu6Rpav3+9nLh96iD36OU0vo90vXviqJoULO24KUl2xbbOZYsvqYvfWU3 aRg7hzE2mBITx7HFu9sHdV3D/X6H6/X69HNcmPF9n1IOiQ6rZxdg/ivlCLqB7/udldq6riGOYxLa ASgHlpjLS0u2zRxLtigKAPgb3EPvTWyHKcULNy1QilcXFNj7/f70c9/3SWCJl6yaXYC7Mhhj1BEd g3MOURR1cmlJaJ+pqopyYIn3UCuCO7v0sm7tPcku5LGdGdqp1A8de0QswWoiK6VUjDHFGOv8ri2y pnqzxLa8OgLkbIJCxx4RS9IbLniXOI6hrmtjugvhFridWU93eTwexuI9RyfLMrher71bvmlNgZjE GsqNVmy7KEyb9vbcvr8h7DBUB/XoFtyrOrBHf35iHVaxZLMsa1JbiH2BCzqmXNojW7TtHNi2BUs5 sMTb2FD2tiVLMVk3GYpJHo2+ovF7PvKEcIfVYrJDtNNeaMeXm/RtWsDdYUdpt6IojHFnyoEllsKK yLZzMI8yWI9IX11a3Pm091zaoijgcrk0G2YQyoEllsS6JUu4Td+mhb0XAL/f73C5XIwZBCSwxJJY EVliX6BFq59YgQtFexJarNNwu92MC1xhGNICF7EoJLLEKDzPMx4N9Hg8moPtXGdIYJMkIeuVWAUS WWI0bXe6be2h0GZZ5myMva/SmBAC0jQFzjlZsMQqWBdZVwclYYYxBmEYdnaH4WGCj8fDuTbFIi+6 wGJ9XbJgiTWxLrLEPvF9H9I0NW5auN/vTsRpq6qC+/0OPz8/nSpaOFGQwBKrYyM5tyzLJuGbc27j FoiFMG1awHa1VUwFC7yYKmjBf1W0CGIrrIislJJE9kDked4raFuKrZRS5XluLN0IB96xRrgNWbLE IpRlqcIwNFq18N8W1TWLrOR5Pvj5vu/TFlnCCh9KKbVyRKJDXdfw+fkJAH/pM3meb30LxArUdQ1V VUEcx50YKBIEAQRBAJ7nvb2aX9d1U9jlfr8bF9yEEE3slbIHCBtYF1nGGEgpt74FYmWKooDb7Was 3MUYAyEE+L7f7CQbK4AorHVdw+PxgCzLjDm6nHMIggCEELS4RViFRJZYlSzLII7j3s0KeP6bbt0y xjqWaVEUkGXZYJoYppj5vk/iSjiBFZEFAPj4+AAAEtkzUNc1ZFnW2WnVh8mqffU6Etd5YIiHMUbf 20qQyBKbUVVVY9kutWGBMfYU5yXGc7vdoCgKEEJAVVVQVVUn9xkpigIejwcwxp4KmGNMHOAv/o2l IfWNH+3JD+Pn+nshVVXB4/HobOGecg/4t22wr2wNbUYgNsPzPAjDEMqyhDzPIYqiyfVa2+GFNE0h z3MIw5AEdiJxHANjrDm9BMs7/vz8dP72drvB5XIBgL/wD/5/VVXw9fUFVVVBXddwuVyaBc92Kcyi KOD7+7tZFEVBxI0iOqbt2VPvAT8b4/ZWsZXWAK3cReK8SCmb/NY0TVUYhsr3fcU5V5xz5fu+8n1f RVGk8jxvTs+l87beQwihlFKKc95s3FBKqSAIno6Cx5x2TH+TUjZHoodh2LyPUn8bU/Dv9NcAgErT VAkhmuPmy7I0bgzBdL9370EppaIoevq9Df5nS9xtmO2Ee6DLxzkHzjn4vt+p8YquJbE86HqjJ+B5 3tP3jxYhehwY+waAJtSA+L7/9N7X67VpP8wm8TwPLpcLfH19Aee8ea82j8cD0jRd5B5cwJrI0iGL RB+6oJLArgOKKcZmf39/jbFQ/Nt2DJQx1skA0SdDFLw4juH39xcA/tqyLMsm7vrz8wN5njcCWhRF b0W0OffgAhSTJYgTEgQB3G43SNO0KfYTx3FH4PDfuJAVxzF8fn421ikWA8J46O12a14rhIAwDEEI AdfrFQAAfn5+4Ha7Aee8c9oGwJ8Vq8fp37kHJ7AarCAIwhoYI8Wrr3BOnufNab5YiwKJoqjZyuz7 fhMrh/9isEr9xVAZY01cHetc4M/a+L5vrC8x5x7wd7ZjstZSuAiCIM4AhQsIgiBWhESWIAhiRUhk CYIgVoREliAIYkX+H3v/PGO3FjsAAAAAAElFTkSuQmCC "
         id="image909"
         x="110.14227"
         y="94.026794" />
      <image
         width="79.375"
         height="52.652084"
         preserveAspectRatio="none"
         xlink:href="data:image/png;base64,iVBORw0KGgoAAAANSUhEUgAAASwAAADHCAYAAACjiW6AAAAABHNCSVQICAgIfAhkiAAAIABJREFU eJztnft1o7zTx2ff82tATwlsCdoSSAmkBFwCLoGUACWYEkIJUAKUgErQ+4cZRQiBJRC+xPM5J2c3 iYMxly8zo7n8kVJKIAiCeAH+79E7QBAE4QoJloEQ4tG7QBDEAiRYBufz+dG7QBDEAn8ohvWDEAL+ ++8/GIYBGGOP3h2CIAzIwtKo63ryL0EQzwUJlgYJFkE8N+QSavz3338ghADGGAzD8OjdIQjC4H+P 3oFbVFUFURRB3/dO/0ZRtCn+1LatWiEUQqjtEQTxPDy9YH1+fnq9/nK5QJIk3u9juoFVVUGWZd7b IQjiOJ5esBDOuZPltNUqMgWrrmsSLIJ4Mp4+hvXnzx8A2G45+b6PDqU3EMRz8TKrhEfGk6qqsv6c VgsJ4rl4GcHq+/6wbbdt6/VzgiAew8sI1pEW1pIlRRYWQTwXLyNYR1lYfd+vWlhHWnYEQfjxMoL1 +fkJf/78Wf3aUrh8y4oiK4sgnoeXESwXtqzokWARxOvwMmkNTdMA5zz49rEcZwkq0yGI5+FlLKwj Ykl6Oc4SQghaLSSIJ+FlBOuIVcKl/KutryMI4lheRrCOsLBc41MUxyKI5+BlBCu0heXj6rm4jgRB HM/LCFZoC8u0msxCZ/N7srII4vG8jGC55GH9+fMHPj4+nLanC1CSJJDn+eT3eZ5Piq1JsAji8bxM WoMrnHNomubm6zCdIY5j+P7+nr0XHpaPjw+o65rSGwjiCXh6wTqCvu/h79+/M3GzCRbAj2gdlQtG EIQbL+MShqSqKmdLDODai4tzTm4hQTyYtxQsIYRyA11gjMH39zetFBLEg3lLlxAn45gsuYS3/o4g iPvwloK1xC3BIgjisbylS/hohBDkXhLEBsjC0jjSwur7HqK6BijLnx9yDsA5iCQhV5MgHCDB0jhC sCZCtVQKNApXn2U0vJUgViDB0ggpWEIIYFW1LlQmaXr9olwvgrDyMoNUXwkhBLDzeer+AShLCjgH OJ1+hAkFbXw9WVoEYYeC7gfAqmpqVXF+tZyK4vqF4Pdp+vOzsoTo64uC8gRhgQQrNG07dQM5BygK EHlut6g4v/7OEC1WVSRaBGFAghUQIcRcrMaY1GQVEF3F8XWMsblonU4kWgRhQIIVEBVkR8aUhQm6 q6g1BmSMQZ9l04D7KFoEQVwhwQoFuoJImoLI83l+1egGAsDV8tIEKYqia0xLFy0agEEQChKsACy5 gkvJoOL7W8W2ZqAbibQtiRZBjJBgBWDmCqYpiIW0BKF3NrW5jOPPJwF6Mz2CIN4UEqy9WFzBPo4X rSvz59bXWawsCr4TBAnWfkxXkPObSZ9O4mNYWRR8JwgSrF30fT+NL2FpzQ0iX8ECAChLsrKIt4cE awdRXc+sq6DodYVkZREECdZW1Mog4iFYvWsrGXN7FMsi3hwSrI1M6gXNIPkNnFxCxAi+k5VFvDMk WBsQQsxyo5bSGPbSx/E0xYFysog3hgRrAzPBWkkS3UsURZRIShAjJFgbMIPt1uTPNdrWL0BPiaQE AQAkWN5Yg+2++P6NJZG073v/9yWIF4cEyxNmCoXZOsaFLS6dYWVFNIWaeENIsHzRY0hb3MHx73wR UUSJpMTbQ4Llgc0d3BRs32BhMcYoxYF4e0iwPGC2Upw7IiwrhmRlEe8ECZYjM+tqpYXMUTDGqLkf 8daQYDkys662uoM7MRNJZ4sAxGZUfl1Zqi4cZME+FzSX0BWjjYxIEnjEcPlZ6xrfnC5ihhACWN8D Q6HSYNosSZEkD3lIET+QYDkghAB2p8x2p33h/Ec8RyuAbqQNjCu+bG06t7YqzNqWhtw+GHIJHbDl Xu1m4zZscSxyW/xQ8cjT6fplitXSuSlLiD4/KXb4QEiwXDBzr/Y+Yfde8GYSKQmWF6oHv3kexunc 4vv7+n3T2KcYnU5UafAgSLBuMCt0fqB1hcwEk5747qBlZbYGaho1zFblt7XtdTX4+3vWTDH6+iLL 9gGQYLlwxOpgCCtL2xbdPA6YQfVRrESeT8+rFh8E0CZzG5UG7Hy+044TCAnWDSbxq1BtkHeu7FE+ 1gYwXcG0rGwLKChq2nFVoqUn7lpWFYljIcG6hdF/6t7JoosYgkf5WMv0fT+PWaWpvQ5Uf41huVot LbJu7woJ1gqHxK8CMSmGpqZ+q0R1PbWEimI5NaUsf44r57N6TVXTia8pS3pY3BESrFs8QXb7IvSk v824qqdYsqw0xPf39dgWhf0FZg0pdc64GyRYK0zKcY4Y47UDWxzrqcT0CVCuIDLGrVaPky5SnF9L oWwYsSyysu4DCdYC9xw0sRkz8E5u4YSZK6i7cq7bWDjnIkmoP9kDIMFagDEWpvfVgcya+pFgKWbW VZouW0sGzsJj9icjK+twSLAWmF20od3BUNsjwbIym8qdps41gC6VA8olp+Egd4UEawFzUOqmVshr BBAXqiu0Y4tdHeHO2yxcOv7HQoL1KEJaWNq2yC2xW1c+7nzv+NpZigO1rT4cEqwljkxnCBggn9xc FHi39t33ta58isnJyrovJFhLHN27PZCFRW7hFNOV39y7zPH8zIaDlCVZWQdCgmWBA0wuelcXwYdQ 26S6wh+CpaJ4Wqq24SDEMVDHUQumPXVEOkPQHlZPlND6SDDRt4XrQ6dNU2BCgBi/9PPIGFs+r55J wrOHRlluyvkibkOCZWFymR2Uf9UzBqHWrUQU/bRNxnygX3qz6O4u/l8IAW3bQluW0I7WTc8YwPk8 c4/xXEZRBJxziOMY4jienuMtFlKaTgusyxJEnj9d7t6rsypYQgio6xqiKIK+7+cn1kLf9yCEgL7v 1UXxSsz29qDZg4d2Cf1FgylMUaqqCvq+Vx0/F+N1Cz/H17dtC23bQlmWkCQJ5Hn+k6el98z32E+W pj91i+QWHsKqYPV9D5+fn+r7PM8hy7LVDX5+fqqnHACAlHLnLt4XDppojfGrJyvI+dWgoPR9D23b Ql3XUNf15HehqaoKhBBwuVyuD+Stk7nRlXwDS/dR3BQsnaqqVgULn4KviP5ZMQYCcEz8CmB04wJt S90sLzhJZ82C2ipQjDGIokh9cc4hiqJVAazrGqqqgnSPRW2K0y+ydJ+FVcHSSxkYY9C2rXL1bFTj ci5j7KWW1tu2hdNoymMGTwHwlPWDTjzxQ0MXKBQPXwsKBYkxdo1BaZntHNsej5UJVVUpIazrevIe aZpCqeVs7RUsGsF2PM4WVpIkUJblqpWFFx6+9hWoqgpOp5P9ZjkofnUIZgfSJ7pJcJVOt6B8LHHG GHDOIUkSZS3p2460sIU58BSvRV2sGGPw/f0NURQpd1Dfz61H7pmO+a9FrtA0jQQACQDycrlIAJCc c+trh2GYvfbG5h/KMAwyz3PJGFP7il8FgGwAJAeQSZLIPM9l13Xh3hxADsMQbntSSlkUUgJcvzgP v31PhmGQTdPILMsk59x6nJe+GGMySRJZFIXsuk4Ow7D8eYzPLYtisg94jjnn6vrFbenXN4znehiG 6zbSdNsHb5rJ/gS9bgi5qiim8OBFZ7t48LVxHE8uhGekaRqZJIn1ZinGi61YuJHSNJWXy2WfIBwh WE1zvWEfdKOgqDRNI/M8VwLhKlBxHLsJlPGeMk1nQq0LVZqmsus6mSTJjyCNZFk22Y/L5XL9xQ7B 6rru5zwAXM8LEQxnC0tKqW7yQnuKIWmaSgCQeZ4/tYVVFMXi0z5JEtmkqSw4d7rhOOcyyzJ/ATvg uAzDcPcbBcXhcrnIJEmcrCjG2GaBmqGLNIBsikJmWaaECrc5DIPMsmy27/r+MsZ+RH6HYM3Og+Ve IbbjZWEVRaFubBM8+V3XPaWF1TSNjON4UXjU01Wj6zpZFIXzzRjHsczzXDa3xGLBrd7DvW6UYRhk 13XeIoXi3jRNOOtytK4aAJmO75PnudP29Wt7dk3vFSzd6tOEk9iPl4Wlx6n0k2DGt57JwkJ3YOlm Sj0uKHR3loRvLQ4z4R4WVlEEu1FMVw+tJBc373K5KCsqJMMwyIZzyeEaayw8z6NpQU8eWEWxT/Cf LJ74m/CysKS0u4W6OyjlXOgewS2hQqtqz8V0uVxUUNlFwDD+dYRgSSmDPdnRReu6zjkeZXP1juJy uUg+ihXGHF1d4K7rZg+cOI6nxypN9wmWEXinOFY4vCwsKaXM81xZJgg+bdEVeqSFdUuo8AK96bZ5 grGcNE1vWh/FKJgY7wv1/nue7GY8ynVljzEW3tVbAOOPcRzLxhJsd/mMZqCdMTY/BzstLIpjHYe3 hdV1nTrRUv6IGn6v/+yeguUiVBirCC1WS/uT53n4+NcanoKlr+y5CO2h8aiVfdRX/NTx2SAITdPM Au3WBwYJ1tPibWFJKZWLgC4RAExWYe5pYbkKFQZk773cf7lcZBzHKqblE//C+I8zRTFJbbCJCbp6 PosJwVb1PEBrSE9NUGxwuWxxqyzL7J9jr0uI24D97jkxxdvCkvInf0V/KuuWwT0sLFehAggTr/Kl KArJOVeBZxPf+JdL+sRSDpAej0Lx3CJS96DrOnVdrQqKhyVpEyu+lqsWQrAo8H4Imyws3Q003UEp j7Ww1oTKdvNzzu/iAko5dV98XE/fNAGMf5nb112RBn7yklxECoPm6Hbd+wbDZF6n1ARdlG9YLzax Yoytn5sQgmUk8lLgPQybLCwp5eQGSI2clSMsrDWhWnK1kiS5iwu46r5sQLeGXCxILB9qmkY2nMsU rkv9Ln/7SJGS8sdl5pxbE5JNfDLJbbl3i3ErnQCCRXGsY9hkYUk5LWswL4CQFtYtocIL3vxdETAP aQk9WL3ovgR6H1f3cYur9wihuuUyr/yhU60epj54WVbIQYJFbuF+Hp/ZucAtocKMetsT1DXbeSum +3JPhmGQRVE4W1/mcXmUJaXvu0pN8HSTXLLIcdXTdIGdLCskhEuI2wGKY4Xk6QTLRaiknC9R6zfl UaiERUf3JRRbymFgwS0Mkj6xYf/NYuQtzNxByzm4XC7W68LrfIUSLAq8B+cwwfK1clyFSsplc/8I EdlrFex5X9/OB5gj1QCor7VY1mr5UAC6rgsa21sTAP08bbaskDQNEiSnzg3hOUSwsJWHCz5CtXRR LhUv72ExYfEgtrZn0VcMh2GY5SjhSmHI9Ilb6LG9UO75mju4JlabzlsgC4sC7+EJKljDMKjYyq0L xUeocNtBL8qV/dID6UeuMtras/imNZhB87U2Mz7lQ/r7uD4M9Nhe6EWPpZtff7CY+745XhfIwpJS kmAFJphgDcOgnuJmXpaOr1DhtrGG0XZRhsArD2gHGI/ClT/XJE498/3myp7jTbK1fMg8R3eJ7emW oybENrHa7bqHimFJSYIVmCCC1XXd5KKxBb63CJWU9oJVvChDWD++eUBb2Jtp7pN6sMcN8W2fgwXS 3qkJW7C4g4eIlZTBEj1tbiyxj92CZVut04Vkq1BJ+eMGmn8XIoCLeUBHxL+k3CZSnHOZpun+cpgA dWzoPrpagXr31dDMRHg8RuZ+BUsUPlCwaKVwH7sEyyZWcRxLKfcJFWK7KPckaG4tnXHdtm/6gVkO E6xm74CbxIy1+cTZdmMsJGD/tSMsbiklCdYTs1mwzBazuju4V6iknLuZaFltOeHBl9c1cGXPJx51 eDnMPRIWi2JT+dCmY699ntSy7aBihe8X6mFGgiWl/Hmg6196PNY17LFJsGwB8FsXq88FtdQV0vei PGp5HYPmPt0479r54B6jpmBeEL+l+6pLzy6ZppO+7aHDAzNCFiu/Sba7TZCappHF+GBL01TV/Opt tjEskySJzLJMFkWx+iD3FixbADyUUOEHNy0039QFLNkJtbyuu3o+QfNZjtSdMBMWD3lvWL50tqRP LMW/8LPYLKvD6jdDCtYvzXY38wazLLMKkmuqjnnfLN23XoJlix0svemW2IUtfcEngz1kIH1LOYwt HvWIC3QtFysYK4Jlsmf6UFMU1mz9I4vNg1qlv0SwTIHCNtpbCvJNMbNdE0te0R8ppYQbCCHg8/NT jaJ3JY5j9cWNUeo2+r6Hf//+TcbGF0UBiTZ6vO97YIyp74UQUFUVnM9n4JxDnudO72WCY8qFEFDX tRqpbh1hr8EYgziO1Rh1fd8eyr9/ADgOvigA0jT89ptm05+2bQt1XauvNTgAmEPt8zyHNE2PO87/ /oH4/g6z/bIEOJ2u/+c83HYPBq/7vu+hrmvo+x76voe2bZ3uCQCAKIrU94wxiKJI/UwIcXObjDH4 /v6e3s8uyhqqrYmaGrOAaV2ZCovN2HC/9gTSzSeGq6sHowuDq4yPsqLWsKUBBN++h4V1i63Th460 sEJte3IuntjCsllQ6N7dOh96DAorI2wxLR2ML5v3lZ4ZYLOyVq+6ruuCiBXuTJqmi0vd5qqg6Vbi qmSWZZt6UJnBcp9SGNz/pXKYp+TA1Sl1Ex6Az2gxPC84ECMYoQULDl4A2YApUGmaOnemRYEy7wfX Y6YvhuH74ag1M4Zt3uOLgmXLsfIVJ4z4u2AmiOpdTG9ZXjb0pVPsH+UjUHhi7jUdJiTDsG/kl9P2 DxAsvIFsqRIuXVRxNXb3sBEIt1BhWruPFiyMy6JA3RrnhveBbmxsfWDri1Z4jvB+1vdPL/Ezq2b+ BxbatoWPj4+bvioAAOcc4jiGKIqAc745ftS200hFmqYghIDT6QRVVU1+9/X1pV5jbgf3uaoqKMtS /fwW6GPj54njePK7V+LV9hfgJxZZluXkWkjHLz7G4dbiXxh/rOsazuezii9ijPEZjkvkcC2GBK/9 uq7VsVuKzeqxJ/1e0GNRW96/LEuoqgoYY5CmKSRJAgAAZVnC5XJR3wNctafve7Uf+n0IADATrKqq 4PPz0/rmGDzHDeEH2YstUP319aWCcnEcA2NMvTfA9UCcz+fJB8Sfu74nwFX0UGifJmD+ZvR9D2VZ QlmW6vwxxiAXAtQjaXwQ4rnKskwJVNu2k79FUASrqoLT6aRuQM755Caxcdh10LbqsxwFBrRRnPAe WRIpFCfzvt5zDPRzmiQJFEUxM2ZsBkdVVZNrYKYxurmFbhma1pgbcw8zdskFdVkCdf3Sux74+t2v hhnsDZragBNhgmyqsebdFWMjQp8YnG8aymL31YDu7p5idJ/30GtXMeVg6XNjL339/g51H+jH3zdZ 25xwZEtnUhaWEAIYY9B1XTDLyYcoiiDLMjifz5Ofu1pMJvh00NMqoih6Twuqbe/yZPcBrYDz+Txx 7eI4vroNo9uPuJw3dGXQeur7HqqqWkyf0H+O7iPnHLLWTKTYzlHXm+7qoTVlC63o+4GfL5QVpe8L uvOMMUiSBC6Xi9c20CLD/V8MLwWR1UAstQxZ+tKtLgwMXi6XhyduPg1HPdl3WljYhUN/mk7SU4yZ fqEsfNfyIQnh0idCFkDrK3v4OZbulaVgeUj0Gt09zQRs9/1SBsBTCRai1yHpGbVxHKuLqOu6TcWT 74LtRgnGDsHSL3L95pqs7N0hO3ytfKhYcKM2t8/ZcR58Ug/0lIPQrp5O6GaX5uCQtZI+6yrho8EA uy04+pYu3QZmx2nMJg5x/HrGYEvQoO97+Pr6Uqu3ANf9zLJMZa4LIYBpvz/KjcX3attWuZGMsesK Y10DGKGItm0n7pZrFYcQAswjfus86BUXeuB86XPoAXN9YSokutsHcA2Y+7p9NtAVRBcXF1QWP8Mu aSSem6O6NnhaWGglmMF17FQ6eULr7uABQWrd/VhzY3y7r65OH3JwCW11emuWlL5gcKR3oVeUhO4h h/MT9M91y4IlwfrFHLZC5SFYGK8yXcDFcqqD3MG9PdF8yof0eGrXdYufybU0bC27/Ch0t++IQnM8 H/rndHEvSbB+MYcJVlE4xWKWxGppGtERcbcjhovg53Jtn1OMn6cBkI02es1VpO7WR01OO54cOePA FCvXVlQkWL+dIxrINc1NMbGJFdZjLu6D6Q7ucD/uOaVbz3+yiU86itat8iKbSN0DVzc55HtNjo/H 3E8SrN+O4Y4EuQluWFi2ZWqnkWw791V/37tM8lkAVx99JnabCc33QLc+D+ncaqDP/PS1rBASrF/O bFx6CGtjRbBssQnnoaYbrcG9rYZCsLVVkS3+FWL69hr3tD4R21CaLW3PSbDegTsJlrnqgxeli1ht ibcdHRheY6kD56KrN7qDxegW7y4f2rC/j7I+bSvEW11PEqx3wLBcdmMRLJtY6U0OnbbpWPt4j+G3 NlCk9BVDp6C5XhdpHP8t6RM+7XP03lNLix1HYmsXtGd+JAnWOxA6VUATrKUcK2/XzMEdxMZ+97QQ tpTD6C6db2+yy+XiNY1pqXzI7D117yoQPGbm5/AJsNsgwXoDgndu0ARr6aL0foIuuIO6K7P3YnfF N4nTKlI6Gx8YujXn4j6imD960cEmVqEsPBKsNyB4PtYoWBi83X1RGhn5smkmrszRgXSzO+2t9iym a3ZzZS+Qhbs2fcg2Bk1PNL0nNrEKZeWRYL0BITsGSCmlLApZGMvTuy5K7YZuxkCzrT1uaHRXb61d MHYE2RwANwQ5lHumx7+kY/zrqPwu7JBypFhJSYL1FtjiKHsu2sYiVlsH1qKYFnBdRXOpJ9uKGY+6 lX5gzibYnCNltMs5JJ4E4D19KGT6xDAMM8E/In5GgvUu6E952J5FbnaG3TO0FvOncMm/2bFfa++x pWYvZHuWmUt+h8G2vuVDaD1uPZdmi5ijgv0kWO/EzjiWmfyHltWW7ahET2PJP5RA4A2rB82X3L04 jpW7dESmefBFDxs30lVulQ9tTZ/AhQHbsd2SGHoLEqx3Ykccyyy32dqzWy9EnmXh7yh2xqC5a47U vdqz4L4d3TLHtLBuobvFrukTNrffZlmZx51iWMQ2diyvm7WBqUccbLEUxFwd9LyRTVdvTaTw/VfT Dw7iaMGSUnoLls6W9Ik0TWfuJoYHzBmjKGQhYpMkWO+EEfx1dU1sT9HGoVvDzVKQDQJqE6klq8Bc GbunSM042sIKPOlnKX0CxnijmUZhruouWW573UQSrDdiSyH0MExHh3POr2I1/q25xO9aiOxqdZiu 3q0J3nqju3v1kLrFEX2+ZtsPKFgm5oKFLefLjH+ZBfDm19baz6fs6U4cg63P+y3MUVhZlgEfv8cJ 3JxzaNsWvr6+oK5rSNMUuq5b7VvOqmr6/pxPRrrhiC4cpusyCBRHWLEXGIgbqr/+PdCH17ZtC6d/ /35+BwD6VYS932+Bvf3zPJ8NVF2DBOuNYIwBpCnA6XT9wTgReKnhPw5C0AcExHEMUNdwKkuo+h6K ooB/4wXsOphAH8zQjtut+h76cYrzmkDh59CHLuA481cRgJdGe8hwAEiLQg3v0Kc2uyCEgNPpBGVZ WidDWznAgiSeGY8hD3rOFaYwdF03ccd8a9aGYbiW3oxxkHR049bcPNBcPb1X+jO4e84cObos4CTu m6SpbODaQbWxfA5Mn1g6j2tfqcPKNVlYb4aIounYqRW3UJ+WjFOz//37N3mK1nWtJi7jE9L2lEVr rW1bqKoKItBcCWMf0FJCVwRHV73t5O5nYZwgzuFqXUGaAhjno65rFSrwpSxL5SZmWWZ9DQnWm+Hj Fuo/a9sWPj8/gXMOfd/PZvIxxtTsPnTpAGDyf4AfMTNlknOuYk9Jkqjv1T4Tj2cULAC4zovUXDgU m6X5iT6cz2eoqgqyLJvNJSXBekfwYhsvwKiuryI2e9nVutGD7gAAiRAAfT+JW9hE6eZuAECUJLMB oCRQfmwdbOuDEAKYsUgCnENVVfD19RVEqHTwAZkkCeR5rq4NEqx3RBcsAICyBDFOPtaJogjSNFUT kvHfFmD6tF0Bt4kXHNdcCs459NrF+Ksxj/mLwfp+tqp7Op2UUOkBc6fguQdlWUKaphBFEQnW25Km P6LTttc0A4uVhSZ5VVWTmJZuRelCh7Em/f9oPbGqAijL63tyDlAU7yFWMMYOtRs+ZFpD5LEytxnD HezjGAqPdIRQkGC9KT7B92R02wCuMan2dIJaC4IzxlT+E2LejEKIH7ECuOZdmfvw29Hc8FfC5g4+ ym0nwXpTbMF3ZfksvR7GuBYApFl2FRzHC9fmUrxzrGopbviMPNO5+7+HvCvxFPRx/CNQG578rhet EOJHGAEA0hSEsfrz2zn0Bl950ATbvm4ZP/DckWC9MVEUTS903WW7Qe9xA9rKcN7NuvLJAPfmQLFS rrz2Xo88d+QSvjtG8B3KEqAobv6Za6C373uIdLEarav3kqvRwtJXCUPGsQ6Mic3cwQBubD+mxAgh QAihyqxcFmBIsN4dc7n9RizLByEERF9fT/WEfhrGNJEgx+LIdAmzQH3HQknbtnA+nyerzTppmkKe 56vHhFxCAvosm8aydIFZQDg8DVUaA1IULxNoPgTjswdzEw8Sq5k7mKabBbYsS/j4+FBilaYpZFkG eZ6rvC18zepxObJOknghzHH2a839XIp3zSLrND2ml/kLcdgwCm2wbVAs8yK3FG3rRfRLBc56k8h0 5bOQhUUAAIDI85mVZT7pnC2Ctr2uCup1Z2l67ErWK+JgyT4UY/980lh0zuczCCEgjmMoxnY0JkmS qILnsiwnpV46JFgEAGh5WUhZAhsvNPWa81mJEOv7aarCyCxBFOAaaH+TjPY1VOBd49DVwx0IIWbn cItYYYAdACDP89XXZlkGjDHgRjNHHRIsQtHH8Vy09KZsnP9YThaxArDErXBVkALtV3TBeuKM90kq itGZwQfsPopCdIthGKBpmsXXkmARiiiK5q6bLlqYAgFw/dcMoJflXKxurPq8GyJJJq43W3B9vAnt bltWB7eArp3ZJmYrJFjElLEoeRLPOp1+REu/MfSGfShWRtyKxOoGoaysgNZabynF2bUtCJfpT4JF zLEFyU8nYB8fP9+jddW219iWJW5FQfYFDLfw2eJYUV3P3MGtgoOfLZTRX2u9AAAFtElEQVRgUeIo YQcFSRciXZDaFgCnp5hP4zR973yrFWaB91CWUaCHg60zw55kURSqUKJMgkUso1lRsyV4241mupOE HeP4sL7ff8wCCV/oVjLYsTZUR1JyCYl10vQqQk2z7OaNQiW+v0msHBB60Xmo/liBjrvpDvZjH7St 4Gqfq2CVZQn//fcfnBZWocnCItxA60kvlB7jG/04J5DC6x6ELIQOWPsZulEfNnYUQqhWx2vgjIAl F5IEi/DDkpNDKaF+2ETgGSZBH9GojzEGaZrC19cXnM9nSFZy8sqyVEmmS2kQ5BISxCPQLY1nWSk8 qFEfZrALIeDv37+zUfZCCDifz8oNTJJkUbDIwiKIB9AzBpE+au3BgiWEAHZQGyDGGHx/f6tODJ+f n5MSHD2+xTmHYqUfG1lYBPEAZs3q9sSxAsSvjmjUp8M5h67rVL8rfRI4wFXUsiyDpmmoHxZBPBuz qoE9bmGIVcZApThroCgNwwBd18HlcoGmaaDrOhiG4WZxNAC5hATxEA5LIN3AzB28Q0mVPr/SB7Kw COJR6CuuIQuhPbENCXlWSLAI4kHM3K4HxLFmbuhB7mAoSLAI4kHM3EKPMWsz9ojdnd3BPZBgEcQj 0cud9pTpbLSwQjXquxckWATxSEyR2GplhbDMntwdBCDBIojHs9fK2lhLaGvU98zuIAAJFkE8nEn3 BgCAlakxIbE16nt2SLAI4sHYcrKihenIoZhNxXkBdxCABIsgngOzS6tlLuQavacrd0RnhntAgkUQ z4KZSGp0NVjDp3haWVcBG/XdCxIsgngSJiPAANytLM/Y02wILuebymQeAQkWQTwJtsnQTlaWz6qi OQSXc+jHEfGvwO7iZyGEamsaRdFi4622baGqKvUafZpGOWbaxnGsekB/fX2pLoxCCEjTVD0FyvHJ wxizdjDE8dhmO1affcDX4vszxlT3RII4CpEk10JkrRV1qG6kqsjZaCPzKtYVwE4Lq21b+Bhn1cVx DH3fw79//2Zm7Pl8ho+PD2CMQVVV6m/6voe/f/9C3/cghICPjw/VjfB8Pqvt4Hb7vofz+awEqyxL +Pz8nO1XpY9X37gPfd8DYwzqulZiRhBHwxibBd9diqJdVvhYVc0ncwfqKno35A6SJJFd18kkSSTn XF4uF1kUhczzXL1mGAYJALJpGvV9nudyGAaZZZmM41i99nK5qNeZf4Pfx3Gs3rfrOpll2Wy/4jiW l8tl9z5IKWe/J4ijGYZByjSVEuD6labXny3B+frvpZSyaaTk3H2bT8ouwYrjWDZNI9M0lVJKdaPr N3jTNHJJF+M4tgqOlFfB4pxLzrlkjKltNk0jGWPq97ow6X+rn4yt+yCllHmek2AR96cofsQF4Co4 BuoavyFYXddNxYpzKZvmJQVrd9CdMQZ930NVVVDXNfR9b/WJdRdtaXy16cbpzeixGyFjDLqug6Zp IEkS+Pz8nPSEbtsW+EJOyZZ9eIrhAMTbMVsxPJ1mwXV2PquM+NnKH25HCIi+vubtj18k72rGHrXL skwmSSKbppF5nsuu6yTnfOJSSSklY0xZMXmeKwuoKArJGJNd18lhGCavA82FQ5cTt6VbdPrrcPv4 +737gK8lC4t4CKaVNVpGk9+j5cT51Y3UGIZhvo2ieEnLCtklWFJKWRSF5JzLOI6tYiWlVLEnGN24 oijU7/I8Vy5ekiTqYIIRc2KMKVHE1+PPdJIkmWx/zz5ISTEs4nFYBccUrQW3seu6qaDZ/vYF+SOl lI+y7giCWEcIcV3dM3KnoChARBGwjw/l7olhuLqGelqE8TevUOC8BgkWQTw5i6KlzTVU39tScDif 1yq+KCRYBPECWEXrFihier+tF4cEiyBeibK83ZVUEykRRa+5GrgACRZBvBh931/7ZaH7p7uEnF/L e36RSOmQYBHEi4NlZADzvMLfBgkWQRAvw/8DLVcIonUlX4UAAAAASUVORK5CYII= "
         id="image920"
         x="26.080359"
         y="93.025154" />
      <text
         id="text925"
         y="94.912079"
         x="24.568449"
         style="font-style:normal;font-variant:normal;font-weight:bold;font-stretch:normal;font-size:4.93888903px;line-height:125%;font-family:sans-serif;-inkscape-font-specification:'sans-serif, Bold';font-variant-ligatures:normal;font-variant-caps:normal;font-variant-numeric:normal;font-feature-settings:normal;text-align:start;letter-spacing:0px;word-spacing:0px;writing-mode:lr-tb;text-anchor:start;fill:#000000;fill-opacity:1;stroke:none;stroke-width:0.26458332px;stroke-linecap:butt;stroke-linejoin:miter;stroke-opacity:1"
         xml:space="preserve"><tspan
           style="font-style:normal;font-variant:normal;font-weight:bold;font-stretch:normal;font-size:4.93888903px;font-family:sans-serif;-inkscape-font-specification:'sans-serif, Bold';font-variant-ligatures:normal;font-variant-caps:normal;font-variant-numeric:normal;font-feature-settings:normal;text-align:start;writing-mode:lr-tb;text-anchor:start;stroke-width:0.26458332px"
           y="94.912079"
           x="24.568449"
           id="tspan923"
           sodipodi:role="line">A</tspan></text>
      <text
         id="text925-7"
         y="94.904671"
         x="104.88537"
         style="font-style:normal;font-variant:normal;font-weight:bold;font-stretch:normal;font-size:4.93888903px;line-height:125%;font-family:sans-serif;-inkscape-font-specification:'sans-serif, Bold';font-variant-ligatures:normal;font-variant-caps:normal;font-variant-numeric:normal;font-feature-settings:normal;text-align:start;letter-spacing:0px;word-spacing:0px;writing-mode:lr-tb;text-anchor:start;fill:#000000;fill-opacity:1;stroke:none;stroke-width:0.26458332px;stroke-linecap:butt;stroke-linejoin:miter;stroke-opacity:1"
         xml:space="preserve"><tspan
           style="font-style:normal;font-variant:normal;font-weight:bold;font-stretch:normal;font-size:4.93888903px;font-family:sans-serif;-inkscape-font-specification:'sans-serif, Bold';font-variant-ligatures:normal;font-variant-caps:normal;font-variant-numeric:normal;font-feature-settings:normal;text-align:start;writing-mode:lr-tb;text-anchor:start;stroke-width:0.26458332px"
           y="94.904671"
           x="104.88537"
           id="tspan923-7"
           sodipodi:role="line">B</tspan></text>
    </g>
  </g>
  <g
     inkscape:groupmode="layer"
     id="layer2"
     inkscape:label="dessus"
     style="display:inline"
     transform="translate(-4.9412499,-8.9150127)">
    <g
       id="g11204"
       transform="translate(0,-0.45783251)">
      <path
         style="display:inline;fill:none;stroke:#000000;stroke-width:0.69999999;stroke-linecap:butt;stroke-linejoin:miter;stroke-miterlimit:4;stroke-dasharray:none;stroke-opacity:1;marker-start:url(#Arrow1Mstart);marker-end:url(#Arrow1Mend)"
         d="M 29.860118,13.517857 V 41.299106 L 9.827381,52.071428"
         id="path977"
         inkscape:connector-curvature="0" />
      <path
         style="display:inline;fill:none;stroke:#000000;stroke-width:0.69999999;stroke-linecap:butt;stroke-linejoin:miter;stroke-miterlimit:4;stroke-dasharray:none;stroke-opacity:1;marker-end:url(#marker1295)"
         d="M 29.860118,41.299106 108.66815,63.032737"
         id="path1273"
         inkscape:connector-curvature="0" />
      <g
         style="stroke:#ff0000;stroke-width:1;stroke-miterlimit:4;stroke-dasharray:none;stroke-opacity:1"
         id="g1403">
        <path
           style="fill:none;stroke:#ff0000;stroke-width:1;stroke-linecap:butt;stroke-linejoin:miter;stroke-miterlimit:4;stroke-dasharray:none;stroke-opacity:1"
           d="m 29.860118,41.299106 c 0,0 2.875361,-17.874309 9.449406,-17.953868 8.883799,-0.107513 5.690858,45.357142 16.441963,46.113094 9.237609,0.649532 13.266948,-37.269143 19.843751,-36.66369 8.61303,-0.07951 5.705503,47.65639 14.899503,47.815734 6.018691,-0.490264 10.235909,-19.656509 10.235909,-19.656509"
           id="path1400"
           inkscape:connector-curvature="0"
           sodipodi:nodetypes="cssccc" />
      </g>
      <path
         sodipodi:nodetypes="cssccc"
         inkscape:connector-curvature="0"
         id="path1400-6"
         d="m 29.860118,41.299106 c 0,0 -17.060212,12.079347 -10.486167,11.999788 8.883799,-0.107513 43.110501,-13.796132 53.861606,-13.04018 9.237609,0.649532 -24.152695,22.640084 -17.575892,23.245537 8.61303,-0.07951 43.314136,-13.764741 52.508135,-13.605397 6.01869,-0.490264 -7.43715,11.055013 -7.43715,11.055013"
         style="fill:none;stroke:#00d956;stroke-width:1;stroke-linecap:butt;stroke-linejoin:miter;stroke-miterlimit:4;stroke-dasharray:none;stroke-opacity:1" />
      <path
         style="fill:none;stroke:#ff0000;stroke-width:0.26499999;stroke-linecap:butt;stroke-linejoin:miter;stroke-miterlimit:4;stroke-dasharray:none;stroke-opacity:1;marker-end:url(#marker1435)"
         d="M 38.364583,43.377977 38.742559,24.10119"
         id="path1423"
         inkscape:connector-curvature="0" />
      <path
         style="display:inline;fill:none;stroke:#ff0000;stroke-width:0.26499999;stroke-linecap:butt;stroke-linejoin:miter;stroke-miterlimit:4;stroke-dasharray:none;stroke-opacity:1;marker-end:url(#marker1435-2)"
         d="M 75.217262,53.65893 75.595238,34.382143"
         id="path1423-1"
         inkscape:connector-curvature="0" />
      <path
         sodipodi:nodetypes="cc"
         style="display:inline;fill:none;stroke:#ff0000;stroke-width:0.26499999;stroke-linecap:butt;stroke-linejoin:miter;stroke-miterlimit:4;stroke-dasharray:none;stroke-opacity:1;marker-end:url(#marker1435-2-2)"
         d="M 90.872717,58.952338 90.494741,79.552042"
         id="path1423-1-0"
         inkscape:connector-curvature="0" />
      <path
         sodipodi:nodetypes="cc"
         style="display:inline;fill:none;stroke:#ff0000;stroke-width:0.26499999;stroke-linecap:butt;stroke-linejoin:miter;stroke-miterlimit:4;stroke-dasharray:none;stroke-opacity:1;marker-end:url(#marker1435-2-2-9)"
         d="M 56.09584,49.033447 55.717864,68.688211"
         id="path1423-1-0-6"
         inkscape:connector-curvature="0" />
      <path
         sodipodi:nodetypes="cc"
         style="display:inline;fill:none;stroke:#00d956;stroke-width:0.26499999;stroke-linecap:butt;stroke-linejoin:miter;stroke-miterlimit:4;stroke-dasharray:none;stroke-opacity:1;marker-end:url(#marker1435-0)"
         d="M 38.364583,43.377977 18.934744,52.520182"
         id="path1423-2"
         inkscape:connector-curvature="0" />
      <path
         sodipodi:nodetypes="cc"
         style="display:inline;fill:none;stroke:#00d956;stroke-width:0.26499999;stroke-linecap:butt;stroke-linejoin:miter;stroke-miterlimit:4;stroke-dasharray:none;stroke-opacity:1;marker-end:url(#marker1435-0-6)"
         d="M 75.089505,53.606094 56.728743,62.535399"
         id="path1423-2-8"
         inkscape:connector-curvature="0" />
      <path
         sodipodi:nodetypes="cc"
         style="display:inline;fill:none;stroke:#00d956;stroke-width:0.26499999;stroke-linecap:butt;stroke-linejoin:miter;stroke-miterlimit:4;stroke-dasharray:none;stroke-opacity:1;marker-end:url(#marker1435-0-7)"
         d="M 56.09584,49.033447 73.213061,41.332994"
         id="path1423-2-2"
         inkscape:connector-curvature="0" />
      <path
         sodipodi:nodetypes="cc"
         style="display:inline;fill:none;stroke:#00d956;stroke-width:0.26499999;stroke-linecap:butt;stroke-linejoin:miter;stroke-miterlimit:4;stroke-dasharray:none;stroke-opacity:1;marker-end:url(#marker1435-0-7-0)"
         d="m 91.050582,58.128474 17.353458,-7.28468"
         id="path1423-2-2-3"
         inkscape:connector-curvature="0" />
      <text
         id="text7800"
         y="16.730654"
         x="24.190477"
         style="font-style:normal;font-weight:normal;font-size:10.58333302px;line-height:1.25;font-family:sans-serif;letter-spacing:0px;word-spacing:0px;fill:#000000;fill-opacity:1;stroke:none;stroke-width:0.26458332"
         xml:space="preserve"><tspan
           style="font-style:normal;font-variant:normal;font-weight:bold;font-stretch:normal;font-size:5.64444447px;font-family:sans-serif;-inkscape-font-specification:'sans-serif Bold';stroke-width:0.26458332"
           y="16.730654"
           x="24.190477"
           id="tspan7798"
           sodipodi:role="line">E</tspan></text>
      <text
         id="text7800-7"
         y="46.569317"
         x="7.6581521"
         style="font-style:normal;font-weight:normal;font-size:10.58333302px;line-height:1.25;font-family:sans-serif;letter-spacing:0px;word-spacing:0px;display:inline;fill:#000000;fill-opacity:1;stroke:none;stroke-width:0.26458332"
         xml:space="preserve"><tspan
           style="font-style:normal;font-variant:normal;font-weight:bold;font-stretch:normal;font-size:5.64444447px;font-family:sans-serif;-inkscape-font-specification:'sans-serif Bold';stroke-width:0.26458332"
           y="46.569317"
           x="7.6581521"
           id="tspan7798-5"
           sodipodi:role="line">M</tspan></text>
      <text
         id="text7800-9"
         y="68.869911"
         x="104.42006"
         style="font-style:normal;font-weight:normal;font-size:10.58333302px;line-height:1.25;font-family:sans-serif;letter-spacing:0px;word-spacing:0px;display:inline;fill:#000000;fill-opacity:1;stroke:none;stroke-width:0.26458332"
         xml:space="preserve"><tspan
           style="font-style:normal;font-variant:normal;font-weight:bold;font-stretch:normal;font-size:5.64444447px;font-family:sans-serif;-inkscape-font-specification:'sans-serif Bold';stroke-width:0.26458332"
           y="68.869911"
           x="104.42006"
           id="tspan7798-2"
           sodipodi:role="line">C</tspan></text>
    </g>
    <text
       xml:space="preserve"
       style="font-style:normal;font-weight:normal;font-size:10.58333302px;line-height:1.25;font-family:sans-serif;letter-spacing:0px;word-spacing:0px;fill:#000000;fill-opacity:1;stroke:none;stroke-width:0.26458332"
       x="4.9136891"
       y="15.332147"
       id="text11208"><tspan
         sodipodi:role="line"
         id="tspan11206"
         x="4.9136891"
         y="15.332147"
         style="font-style:normal;font-variant:normal;font-weight:bold;font-stretch:normal;font-size:5.64444447px;font-family:sans-serif;-inkscape-font-specification:'sans-serif Bold';stroke-width:0.26458332">A</tspan></text>
    <text
       xml:space="preserve"
       style="font-style:normal;font-weight:normal;font-size:10.58333302px;line-height:1.25;font-family:sans-serif;letter-spacing:0px;word-spacing:0px;display:inline;fill:#000000;fill-opacity:1;stroke:none;stroke-width:0.26458332"
       x="117.82325"
       y="15.332147"
       id="text11208-2"><tspan
         sodipodi:role="line"
         id="tspan11206-0"
         x="117.82325"
         y="15.332147"
         style="font-style:normal;font-variant:normal;font-weight:bold;font-stretch:normal;font-size:5.64444447px;font-family:sans-serif;-inkscape-font-specification:'sans-serif Bold';stroke-width:0.26458332">B</tspan></text>
    <g
       id="g11374">
      <g
         id="g7866-3"
         style="display:inline;stroke:#000000;stroke-width:0.69999999;stroke-miterlimit:4;stroke-dasharray:none;stroke-opacity:1"
         transform="translate(2.7740958,-2.555466)">
        <path
           style="fill:none;stroke:#000000;stroke-width:0.66500002;stroke-linecap:butt;stroke-linejoin:miter;stroke-miterlimit:4;stroke-dasharray:none;stroke-opacity:1"
           d="M 125.04399,17.675595 V 33.928571"
           id="path7834-6"
           inkscape:connector-curvature="0" />
        <path
           style="fill:none;stroke:#000000;stroke-width:0.66500002;stroke-linecap:butt;stroke-linejoin:miter;stroke-miterlimit:4;stroke-dasharray:none;stroke-opacity:1"
           d="m 125.17628,25.802083 h 73.32738"
           id="path7836-1"
           inkscape:connector-curvature="0" />
      </g>
      <g
         style="stroke:#000000;stroke-width:0.73234582;stroke-miterlimit:4;stroke-dasharray:none;stroke-opacity:1"
         transform="matrix(0.82222976,0,0,1.0028077,24.99401,-24.990793)"
         id="g7933">
        <path
           style="display:inline;fill:none;stroke:#878787;stroke-width:0.73234582;stroke-linecap:butt;stroke-linejoin:miter;stroke-miterlimit:4;stroke-dasharray:none;stroke-opacity:1"
           d="m 125.11736,48.103129 c 0,0 2.84675,-8.733881 4.8638,-8.285333 3.79477,-0.190578 4.24265,15.935008 7.40022,15.90846 3.19161,-0.02683 4.36974,-15.055647 7.81953,-15.817959 3.10482,0.571733 4.13976,16.389692 8.16452,16.389692 4.02476,0 4.25373,-16.132086 8.04953,-16.008537 2.31883,0.07548 3.79477,7.432536 3.79477,7.432536 v 0"
           id="path7899-1"
           inkscape:connector-curvature="0"
           sodipodi:nodetypes="ccscsscc" />
        <path
           style="display:inline;fill:none;stroke:#878787;stroke-width:0.73234582;stroke-linecap:butt;stroke-linejoin:miter;stroke-miterlimit:4;stroke-dasharray:none;stroke-opacity:1"
           d="m 205.30211,47.870014 c 0,0 -2.84675,8.733881 -4.8638,8.285333 -3.79477,0.190578 -4.24265,-15.935008 -7.40022,-15.90846 -3.19161,0.02683 -4.36974,15.055647 -7.81953,15.817959 -3.10482,-0.571733 -4.13976,-16.389692 -8.16453,-16.389692 -4.02475,0 -4.25373,16.132086 -8.04953,16.008537 -2.31882,-0.07548 -3.79477,-7.432536 -3.79477,-7.432536 v 0"
           id="path7899-1-9"
           inkscape:connector-curvature="0"
           sodipodi:nodetypes="ccscsscc" />
      </g>
      <g
         transform="translate(3.0413653,4.8108515)"
         id="g8421"
         style="stroke:#000000;stroke-width:0.69999999;stroke-miterlimit:4;stroke-dasharray:none;stroke-opacity:1">
        <path
           style="fill:none;stroke:#000000;stroke-width:0.36500001;stroke-linecap:butt;stroke-linejoin:miter;stroke-miterlimit:4;stroke-dasharray:none;stroke-opacity:1;marker-start:url(#StopM);marker-end:url(#StopM)"
           d="m 167.57799,8.6215517 h 12.9855"
           id="path7976"
           inkscape:connector-curvature="0"
           sodipodi:nodetypes="cc" />
        <text
           xml:space="preserve"
           style="font-style:normal;font-weight:normal;font-size:10.58333302px;line-height:1.25;font-family:sans-serif;letter-spacing:0px;word-spacing:0px;fill:#000000;fill-opacity:1;stroke:none;stroke-width:0.18520832"
           x="172.60933"
           y="7.8565593"
           id="text8404"><tspan
             sodipodi:role="line"
             id="tspan8402"
             x="172.60933"
             y="7.8565593"
             style="font-size:4.93888903px;stroke-width:0.18520832">λ</tspan></text>
      </g>
      <text
         id="text11230"
         y="31.373104"
         x="124.08488"
         style="font-style:normal;font-weight:normal;font-size:10.58333302px;line-height:1.25;font-family:sans-serif;letter-spacing:0px;word-spacing:0px;fill:#000000;fill-opacity:1;stroke:none;stroke-width:0.26458332"
         xml:space="preserve"><tspan
           style="font-size:3.88055563px;stroke-width:0.26458332"
           y="31.373104"
           x="124.08488"
           id="tspan11228"
           sodipodi:role="line">1</tspan></text>
    </g>
    <g
       id="g11386">
      <g
         transform="translate(2.7740958,23.201728)"
         id="g7866"
         style="stroke:#000000;stroke-width:0.69999999;stroke-miterlimit:4;stroke-dasharray:none;stroke-opacity:1">
        <path
           style="fill:none;stroke:#000000;stroke-width:0.66500002;stroke-linecap:butt;stroke-linejoin:miter;stroke-miterlimit:4;stroke-dasharray:none;stroke-opacity:1"
           d="M 125.04399,17.675595 V 33.928571"
           id="path7834"
           inkscape:connector-curvature="0" />
        <path
           style="fill:none;stroke:#000000;stroke-width:0.66500002;stroke-linecap:butt;stroke-linejoin:miter;stroke-miterlimit:4;stroke-dasharray:none;stroke-opacity:1"
           d="m 125.17628,25.802083 h 73.32738"
           id="path7836"
           inkscape:connector-curvature="0" />
      </g>
      <path
         sodipodi:nodetypes="ccscsscc"
         inkscape:connector-curvature="0"
         id="path7899"
         d="m 127.95038,49.00381 c 0,0 4.67856,-8.661026 7.99351,-8.21622 6.2366,-0.188988 6.97268,15.802083 12.16206,15.775757 5.24533,-0.02661 7.18155,-14.930058 12.85118,-15.686011 5.10268,0.566964 6.80357,16.252975 13.41816,16.252975 6.61458,0 6.99089,-15.997518 13.22917,-15.874999 3.81094,0.07485 6.2366,7.370536 6.2366,7.370536 v 0"
         style="fill:none;stroke:#878787;stroke-width:0.66500002;stroke-linecap:butt;stroke-linejoin:miter;stroke-miterlimit:4;stroke-dasharray:none;stroke-opacity:1" />
      <g
         transform="translate(3.0413653,4.4328753)"
         id="g11138"
         style="stroke:#000000;stroke-width:0.69999999;stroke-miterlimit:4;stroke-dasharray:none;stroke-opacity:1">
        <path
           style="fill:none;stroke:#000000;stroke-width:0.36500001;stroke-linecap:butt;stroke-linejoin:miter;stroke-miterlimit:4;stroke-dasharray:none;stroke-opacity:1;marker-start:url(#StopM-7);marker-end:url(#StopM-7)"
           d="m 157.91576,35.008152 h 26.8167"
           id="path7976-5"
           inkscape:connector-curvature="0"
           sodipodi:nodetypes="cc" />
        <text
           xml:space="preserve"
           style="font-style:normal;font-weight:normal;font-size:10.58333302px;line-height:1.25;font-family:sans-serif;letter-spacing:0px;word-spacing:0px;fill:#000000;fill-opacity:1;stroke:none;stroke-width:0.18520832;stroke-miterlimit:4;stroke-dasharray:none;stroke-opacity:1"
           x="169.8627"
           y="33.222782"
           id="text8404-0"><tspan
             sodipodi:role="line"
             id="tspan8402-3"
             x="169.8627"
             y="33.222782"
             style="font-size:4.93888903px;stroke-width:0.18520832">λ</tspan></text>
      </g>
      <text
         id="text11230-6"
         y="57.130299"
         x="124.227"
         style="font-style:normal;font-weight:normal;font-size:10.58333302px;line-height:1.25;font-family:sans-serif;letter-spacing:0px;word-spacing:0px;display:inline;fill:#000000;fill-opacity:1;stroke:none;stroke-width:0.26458332"
         xml:space="preserve"><tspan
           style="font-size:3.88055563px;stroke-width:0.26458332"
           y="57.130299"
           x="124.227"
           id="tspan11228-1"
           sodipodi:role="line">2</tspan></text>
    </g>
    <g
       id="g11398">
      <g
         transform="translate(2.7740958,49.412037)"
         style="display:inline;stroke:#000000;stroke-width:0.69999999;stroke-miterlimit:4;stroke-dasharray:none;stroke-opacity:1"
         id="g7866-2">
        <path
           inkscape:connector-curvature="0"
           id="path7834-9"
           d="M 125.04399,17.675595 V 33.928571"
           style="fill:none;stroke:#000000;stroke-width:0.66500002;stroke-linecap:butt;stroke-linejoin:miter;stroke-miterlimit:4;stroke-dasharray:none;stroke-opacity:1" />
        <path
           inkscape:connector-curvature="0"
           id="path7836-3"
           d="m 125.17628,25.802083 h 73.32738"
           style="fill:none;stroke:#000000;stroke-width:0.66500002;stroke-linecap:butt;stroke-linejoin:miter;stroke-miterlimit:4;stroke-dasharray:none;stroke-opacity:1" />
      </g>
      <path
         style="display:inline;fill:none;stroke:#878787;stroke-width:0.66500002;stroke-linecap:butt;stroke-linejoin:miter;stroke-miterlimit:4;stroke-dasharray:none;stroke-opacity:1"
         d="m 128.02262,75.210337 c 0,0 4.00411,-8.831051 12.69961,-8.658509 9.25631,-0.454136 13.28129,16.560104 21.87289,16.534073 7.1044,-0.02153 10.83522,-16.350211 18.60524,-16.674204 8.63162,-0.359919 11.74249,8.158429 11.74249,8.158429"
         id="path7899-4"
         inkscape:connector-curvature="0"
         sodipodi:nodetypes="ccssc" />
      <g
         transform="translate(3.0413653,4.2438872)"
         id="g11133"
         style="stroke:#000000;stroke-width:0.69999999;stroke-miterlimit:4;stroke-dasharray:none;stroke-opacity:1">
        <path
           style="display:inline;fill:none;stroke:#000000;stroke-width:0.36500001;stroke-linecap:butt;stroke-linejoin:miter;stroke-miterlimit:4;stroke-dasharray:none;stroke-opacity:1;marker-start:url(#StopM-7-6);marker-end:url(#StopM-7-6)"
           d="m 137.39848,60.594731 h 41.91743"
           id="path7976-5-0"
           inkscape:connector-curvature="0"
           sodipodi:nodetypes="cc" />
        <text
           xml:space="preserve"
           style="font-style:normal;font-weight:normal;font-size:10.58333302px;line-height:1.25;font-family:sans-serif;letter-spacing:0px;word-spacing:0px;display:inline;fill:#000000;fill-opacity:1;stroke:none;stroke-width:0.18520834;stroke-miterlimit:4;stroke-dasharray:none;stroke-opacity:1"
           x="156.89578"
           y="59.342133"
           id="text8404-0-6"><tspan
             sodipodi:role="line"
             id="tspan8402-3-3"
             x="156.89578"
             y="59.342133"
             style="font-size:4.93888903px;stroke-width:0.18520834">λ</tspan></text>
      </g>
      <text
         id="text11230-5"
         y="83.28566"
         x="124.21564"
         style="font-style:normal;font-weight:normal;font-size:10.58333302px;line-height:1.25;font-family:sans-serif;letter-spacing:0px;word-spacing:0px;display:inline;fill:#000000;fill-opacity:1;stroke:none;stroke-width:0.26458332"
         xml:space="preserve"><tspan
           style="font-size:3.88055563px;stroke-width:0.26458332"
           y="83.28566"
           x="124.21564"
           id="tspan11228-5"
           sodipodi:role="line">3</tspan></text>
    </g>
  </g>
</svg>
