<?xml version="1.0" encoding="UTF-8" standalone="no"?>
<!-- Created with Inkscape (http://www.inkscape.org/) -->

<svg
   xmlns:dc="http://purl.org/dc/elements/1.1/"
   xmlns:cc="http://creativecommons.org/ns#"
   xmlns:rdf="http://www.w3.org/1999/02/22-rdf-syntax-ns#"
   xmlns:svg="http://www.w3.org/2000/svg"
   xmlns="http://www.w3.org/2000/svg"
   xmlns:sodipodi="http://sodipodi.sourceforge.net/DTD/sodipodi-0.dtd"
   xmlns:inkscape="http://www.inkscape.org/namespaces/inkscape"
   width="157.09624mm"
   height="62.998886mm"
   viewBox="0 0 157.09624 62.998886"
   version="1.1"
   id="svg8"
   inkscape:version="0.92.5 (2060ec1f9f, 2020-04-08)"
   sodipodi:docname="fig_vecteur_principes.svg"
   inkscape:export-filename="/home/poulpe/Enseignement/fiches_focus_online/BriquesDeGeomatique/figures/fig_vecteur_principes.png"
   inkscape:export-xdpi="150"
   inkscape:export-ydpi="150">
  <defs
     id="defs2" />
  <sodipodi:namedview
     id="base"
     pagecolor="#ffffff"
     bordercolor="#666666"
     borderopacity="1.0"
     inkscape:pageopacity="0.0"
     inkscape:pageshadow="2"
     inkscape:zoom="0.98994949"
     inkscape:cx="448.89839"
     inkscape:cy="119.75898"
     inkscape:document-units="mm"
     inkscape:current-layer="layer1"
     showgrid="false"
     fit-margin-top="0"
     fit-margin-left="0"
     fit-margin-right="0"
     fit-margin-bottom="0"
     inkscape:window-width="1920"
     inkscape:window-height="1011"
     inkscape:window-x="0"
     inkscape:window-y="0"
     inkscape:window-maximized="1" />
  <metadata
     id="metadata5">
    <rdf:RDF>
      <cc:Work
         rdf:about="">
        <dc:format>image/svg+xml</dc:format>
        <dc:type
           rdf:resource="http://purl.org/dc/dcmitype/StillImage" />
        <dc:title></dc:title>
      </cc:Work>
    </rdf:RDF>
  </metadata>
  <g
     inkscape:label="Calque 1"
     inkscape:groupmode="layer"
     id="layer1"
     transform="translate(-27.53038,-55.557535)">
    <g
       id="g849">
      <path
         inkscape:connector-curvature="0"
         id="path815"
         d="m 33.261904,67.568453 c 5.197174,5.197171 5.197174,5.197171 5.197174,5.197171"
         style="fill:none;stroke:#000000;stroke-width:0.86500001;stroke-linecap:butt;stroke-linejoin:miter;stroke-miterlimit:4;stroke-dasharray:none;stroke-opacity:1" />
      <path
         inkscape:connector-curvature="0"
         id="path815-3"
         d="m 33.261905,72.765626 c 5.197171,-5.197174 5.197171,-5.197174 5.197171,-5.197174"
         style="fill:none;stroke:#000000;stroke-width:0.86500001;stroke-linecap:butt;stroke-linejoin:miter;stroke-miterlimit:4;stroke-dasharray:none;stroke-opacity:1" />
    </g>
    <g
       id="g930"
       transform="translate(-20.446119,8.1517206)">
      <path
         inkscape:connector-curvature="0"
         id="path912"
         d="m 115.70796,83.443452 c -9.59115,13.654389 -9.73289,13.559896 -9.73289,13.559896 L 96.998138,81.978793 91.753721,67.568452 80.46168,60.528644"
         style="fill:none;stroke:#7b7b7b;stroke-width:0.86500001;stroke-linecap:butt;stroke-linejoin:miter;stroke-miterlimit:4;stroke-dasharray:none;stroke-opacity:1" />
      <g
         id="g849-7"
         transform="translate(44.648438,-9.5911464)">
        <path
           style="fill:none;stroke:#000000;stroke-width:0.86500001;stroke-linecap:butt;stroke-linejoin:miter;stroke-miterlimit:4;stroke-dasharray:none;stroke-opacity:1"
           d="m 33.261904,67.568453 c 5.197174,5.197171 5.197174,5.197171 5.197174,5.197171"
           id="path815-5"
           inkscape:connector-curvature="0" />
        <path
           style="fill:none;stroke:#000000;stroke-width:0.86500001;stroke-linecap:butt;stroke-linejoin:miter;stroke-miterlimit:4;stroke-dasharray:none;stroke-opacity:1"
           d="m 33.261905,72.765626 c 5.197171,-5.197174 5.197171,-5.197174 5.197171,-5.197174"
           id="path815-3-3"
           inkscape:connector-curvature="0" />
      </g>
      <g
         id="g849-5"
         transform="translate(55.798735,-2.4095988)">
        <path
           style="fill:none;stroke:#000000;stroke-width:0.86500001;stroke-linecap:butt;stroke-linejoin:miter;stroke-miterlimit:4;stroke-dasharray:none;stroke-opacity:1"
           d="m 33.261904,67.568453 c 5.197174,5.197171 5.197174,5.197171 5.197174,5.197171"
           id="path815-6"
           inkscape:connector-curvature="0" />
        <path
           style="fill:none;stroke:#000000;stroke-width:0.86500001;stroke-linecap:butt;stroke-linejoin:miter;stroke-miterlimit:4;stroke-dasharray:none;stroke-opacity:1"
           d="m 33.261905,72.765626 c 5.197171,-5.197174 5.197171,-5.197174 5.197171,-5.197174"
           id="path815-3-2"
           inkscape:connector-curvature="0" />
      </g>
      <g
         id="g849-9"
         transform="translate(61.27939,11.764508)">
        <path
           style="fill:none;stroke:#000000;stroke-width:0.86500001;stroke-linecap:butt;stroke-linejoin:miter;stroke-miterlimit:4;stroke-dasharray:none;stroke-opacity:1"
           d="m 33.261904,67.568453 c 5.197174,5.197171 5.197174,5.197171 5.197174,5.197171"
           id="path815-1"
           inkscape:connector-curvature="0" />
        <path
           style="fill:none;stroke:#000000;stroke-width:0.86500001;stroke-linecap:butt;stroke-linejoin:miter;stroke-miterlimit:4;stroke-dasharray:none;stroke-opacity:1"
           d="m 33.261905,72.765626 c 5.197171,-5.197174 5.197171,-5.197174 5.197171,-5.197174"
           id="path815-3-27"
           inkscape:connector-curvature="0" />
      </g>
      <g
         id="g849-0"
         transform="translate(70.350819,26.694568)">
        <path
           style="fill:none;stroke:#000000;stroke-width:0.86500001;stroke-linecap:butt;stroke-linejoin:miter;stroke-miterlimit:4;stroke-dasharray:none;stroke-opacity:1"
           d="m 33.261904,67.568453 c 5.197174,5.197171 5.197174,5.197171 5.197174,5.197171"
           id="path815-9"
           inkscape:connector-curvature="0" />
        <path
           style="fill:none;stroke:#000000;stroke-width:0.86500001;stroke-linecap:butt;stroke-linejoin:miter;stroke-miterlimit:4;stroke-dasharray:none;stroke-opacity:1"
           d="m 33.261905,72.765626 c 5.197171,-5.197174 5.197171,-5.197174 5.197171,-5.197174"
           id="path815-3-36"
           inkscape:connector-curvature="0" />
      </g>
      <g
         id="g849-06"
         transform="translate(79.989212,13.276413)">
        <path
           style="fill:none;stroke:#000000;stroke-width:0.86500001;stroke-linecap:butt;stroke-linejoin:miter;stroke-miterlimit:4;stroke-dasharray:none;stroke-opacity:1"
           d="m 33.261904,67.568453 c 5.197174,5.197171 5.197174,5.197171 5.197174,5.197171"
           id="path815-2"
           inkscape:connector-curvature="0" />
        <path
           style="fill:none;stroke:#000000;stroke-width:0.86500001;stroke-linecap:butt;stroke-linejoin:miter;stroke-miterlimit:4;stroke-dasharray:none;stroke-opacity:1"
           d="m 33.261905,72.765626 c 5.197171,-5.197174 5.197171,-5.197174 5.197171,-5.197174"
           id="path815-3-6"
           inkscape:connector-curvature="0" />
      </g>
    </g>
    <g
       transform="translate(99.912429,23.841755)"
       id="g849-1">
      <path
         inkscape:connector-curvature="0"
         id="path815-8"
         d="m 33.261904,67.568453 c 5.197174,5.197171 5.197174,5.197171 5.197174,5.197171"
         style="fill:none;stroke:#000000;stroke-width:0.86500001;stroke-linecap:butt;stroke-linejoin:miter;stroke-miterlimit:4;stroke-dasharray:none;stroke-opacity:1" />
      <path
         inkscape:connector-curvature="0"
         id="path815-3-7"
         d="m 33.261905,72.765626 c 5.197171,-5.197174 5.197171,-5.197174 5.197171,-5.197174"
         style="fill:none;stroke:#000000;stroke-width:0.86500001;stroke-linecap:butt;stroke-linejoin:miter;stroke-miterlimit:4;stroke-dasharray:none;stroke-opacity:1" />
    </g>
    <g
       transform="translate(114.34498,35.467979)"
       id="g849-92">
      <path
         inkscape:connector-curvature="0"
         id="path815-0"
         d="m 33.261904,67.568453 c 5.197174,5.197171 5.197174,5.197171 5.197174,5.197171"
         style="fill:none;stroke:#000000;stroke-width:0.86500001;stroke-linecap:butt;stroke-linejoin:miter;stroke-miterlimit:4;stroke-dasharray:none;stroke-opacity:1" />
      <path
         inkscape:connector-curvature="0"
         id="path815-3-23"
         d="m 33.261905,72.765626 c 5.197171,-5.197174 5.197171,-5.197174 5.197171,-5.197174"
         style="fill:none;stroke:#000000;stroke-width:0.86500001;stroke-linecap:butt;stroke-linejoin:miter;stroke-miterlimit:4;stroke-dasharray:none;stroke-opacity:1" />
    </g>
    <g
       transform="translate(130.91569,26.648085)"
       id="g849-75">
      <path
         inkscape:connector-curvature="0"
         id="path815-92"
         d="m 33.261904,67.568453 c 5.197174,5.197171 5.197174,5.197171 5.197174,5.197171"
         style="fill:none;stroke:#000000;stroke-width:0.86500001;stroke-linecap:butt;stroke-linejoin:miter;stroke-miterlimit:4;stroke-dasharray:none;stroke-opacity:1" />
      <path
         inkscape:connector-curvature="0"
         id="path815-3-28"
         d="m 33.261905,72.765626 c 5.197171,-5.197174 5.197171,-5.197174 5.197171,-5.197174"
         style="fill:none;stroke:#000000;stroke-width:0.86500001;stroke-linecap:butt;stroke-linejoin:miter;stroke-miterlimit:4;stroke-dasharray:none;stroke-opacity:1" />
    </g>
    <g
       transform="translate(145.34825,17.694556)"
       id="g849-97">
      <path
         inkscape:connector-curvature="0"
         id="path815-36"
         d="m 33.261904,67.568453 c 5.197174,5.197171 5.197174,5.197171 5.197174,5.197171"
         style="fill:none;stroke:#000000;stroke-width:0.86500001;stroke-linecap:butt;stroke-linejoin:miter;stroke-miterlimit:4;stroke-dasharray:none;stroke-opacity:1" />
      <path
         inkscape:connector-curvature="0"
         id="path815-3-1"
         d="m 33.261905,72.765626 c 5.197171,-5.197174 5.197171,-5.197174 5.197171,-5.197174"
         style="fill:none;stroke:#000000;stroke-width:0.86500001;stroke-linecap:butt;stroke-linejoin:miter;stroke-miterlimit:4;stroke-dasharray:none;stroke-opacity:1" />
    </g>
    <g
       transform="translate(132.92022,5.2665225)"
       id="g849-2">
      <path
         inkscape:connector-curvature="0"
         id="path815-93"
         d="m 33.261904,67.568453 c 5.197174,5.197171 5.197174,5.197171 5.197174,5.197171"
         style="fill:none;stroke:#000000;stroke-width:0.86500001;stroke-linecap:butt;stroke-linejoin:miter;stroke-miterlimit:4;stroke-dasharray:none;stroke-opacity:1" />
      <path
         inkscape:connector-curvature="0"
         id="path815-3-19"
         d="m 33.261905,72.765626 c 5.197171,-5.197174 5.197171,-5.197174 5.197171,-5.197174"
         style="fill:none;stroke:#000000;stroke-width:0.86500001;stroke-linecap:butt;stroke-linejoin:miter;stroke-miterlimit:4;stroke-dasharray:none;stroke-opacity:1" />
    </g>
    <g
       transform="translate(128.10936,-11.705093)"
       id="g849-4">
      <path
         inkscape:connector-curvature="0"
         id="path815-7"
         d="m 33.261904,67.568453 c 5.197174,5.197171 5.197174,5.197171 5.197174,5.197171"
         style="fill:none;stroke:#000000;stroke-width:0.86500001;stroke-linecap:butt;stroke-linejoin:miter;stroke-miterlimit:4;stroke-dasharray:none;stroke-opacity:1" />
      <path
         inkscape:connector-curvature="0"
         id="path815-3-8"
         d="m 33.261905,72.765626 c 5.197171,-5.197174 5.197171,-5.197174 5.197171,-5.197174"
         style="fill:none;stroke:#000000;stroke-width:0.86500001;stroke-linecap:butt;stroke-linejoin:miter;stroke-miterlimit:4;stroke-dasharray:none;stroke-opacity:1" />
    </g>
    <g
       transform="translate(114.21135,-3.2861024)"
       id="g849-45">
      <path
         inkscape:connector-curvature="0"
         id="path815-03"
         d="m 33.261904,67.568453 c 5.197174,5.197171 5.197174,5.197171 5.197174,5.197171"
         style="fill:none;stroke:#000000;stroke-width:0.86500001;stroke-linecap:butt;stroke-linejoin:miter;stroke-miterlimit:4;stroke-dasharray:none;stroke-opacity:1" />
      <path
         inkscape:connector-curvature="0"
         id="path815-3-61"
         d="m 33.261905,72.765626 c 5.197171,-5.197174 5.197171,-5.197174 5.197171,-5.197174"
         style="fill:none;stroke:#000000;stroke-width:0.86500001;stroke-linecap:butt;stroke-linejoin:miter;stroke-miterlimit:4;stroke-dasharray:none;stroke-opacity:1" />
    </g>
    <g
       transform="translate(97.640638,1.7920186)"
       id="g849-063">
      <path
         inkscape:connector-curvature="0"
         id="path815-20"
         d="m 33.261904,67.568453 c 5.197174,5.197171 5.197174,5.197171 5.197174,5.197171"
         style="fill:none;stroke:#000000;stroke-width:0.86500001;stroke-linecap:butt;stroke-linejoin:miter;stroke-miterlimit:4;stroke-dasharray:none;stroke-opacity:1" />
      <path
         inkscape:connector-curvature="0"
         id="path815-3-615"
         d="m 33.261905,72.765626 c 5.197171,-5.197174 5.197171,-5.197174 5.197171,-5.197174"
         style="fill:none;stroke:#000000;stroke-width:0.86500001;stroke-linecap:butt;stroke-linejoin:miter;stroke-miterlimit:4;stroke-dasharray:none;stroke-opacity:1" />
    </g>
    <g
       transform="translate(83.742623,15.422765)"
       id="g849-54">
      <path
         inkscape:connector-curvature="0"
         id="path815-76"
         d="m 33.261904,67.568453 c 5.197174,5.197171 5.197174,5.197171 5.197174,5.197171"
         style="fill:none;stroke:#000000;stroke-width:0.86500001;stroke-linecap:butt;stroke-linejoin:miter;stroke-miterlimit:4;stroke-dasharray:none;stroke-opacity:1" />
      <path
         inkscape:connector-curvature="0"
         id="path815-3-5"
         d="m 33.261905,72.765626 c 5.197171,-5.197174 5.197171,-5.197174 5.197171,-5.197174"
         style="fill:none;stroke:#000000;stroke-width:0.86500001;stroke-linecap:butt;stroke-linejoin:miter;stroke-miterlimit:4;stroke-dasharray:none;stroke-opacity:1" />
    </g>
    <path
       style="fill:#7b7b7b;fill-opacity:0.31914894;stroke:#7b7b7b;stroke-width:0.86500001;stroke-linecap:butt;stroke-linejoin:miter;stroke-miterlimit:4;stroke-dasharray:none;stroke-opacity:1"
       d="m 119.46948,85.589802 14.09847,-13.764381 16.50389,-5.345391 13.8312,-8.35217 4.87766,17.03843 12.42804,12.49485 -14.49937,9.087165 -16.37026,8.753075 -14.69983,-11.759858 z"
       id="path1033"
       inkscape:connector-curvature="0" />
    <text
       xml:space="preserve"
       style="font-style:normal;font-weight:normal;font-size:10.58333302px;line-height:1.25;font-family:sans-serif;letter-spacing:0px;word-spacing:0px;fill:#000000;fill-opacity:1;stroke:none;stroke-width:0.26458332"
       x="29.391796"
       y="117.92941"
       id="text1037"><tspan
         sodipodi:role="line"
         id="tspan1035"
         x="29.391796"
         y="117.92941"
         style="font-size:5.64444447px;stroke-width:0.26458332">Point</tspan></text>
    <text
       xml:space="preserve"
       style="font-style:normal;font-weight:normal;font-size:10.58333302px;line-height:1.25;font-family:sans-serif;letter-spacing:0px;word-spacing:0px;fill:#000000;fill-opacity:1;stroke:none;stroke-width:0.26458332"
       x="73.231339"
       y="71.123352"
       id="text1037-6"><tspan
         sodipodi:role="line"
         id="tspan1035-9"
         x="73.231339"
         y="71.123352"
         style="font-style:italic;font-variant:normal;font-weight:normal;font-stretch:normal;font-size:5.64444447px;font-family:sans-serif;-inkscape-font-specification:'sans-serif Italic';stroke-width:0.26458332">Noeud</tspan></text>
    <text
       xml:space="preserve"
       style="font-style:normal;font-weight:normal;font-size:10.58333302px;line-height:1.25;font-family:sans-serif;letter-spacing:0px;word-spacing:0px;fill:#000000;fill-opacity:1;stroke:none;stroke-width:0.26458332"
       x="90.705559"
       y="100.81175"
       id="text1037-6-3"><tspan
         sodipodi:role="line"
         id="tspan1035-9-7"
         x="90.705559"
         y="100.81175"
         style="font-style:italic;font-variant:normal;font-weight:normal;font-stretch:normal;font-size:5.64444447px;font-family:sans-serif;-inkscape-font-specification:'sans-serif Italic';stroke-width:0.26458332">Arc</tspan></text>
    <text
       xml:space="preserve"
       style="font-style:normal;font-weight:normal;font-size:10.58333302px;line-height:1.25;font-family:sans-serif;letter-spacing:0px;word-spacing:0px;fill:#000000;fill-opacity:1;stroke:none;stroke-width:0.26458332"
       x="131.60854"
       y="62.570736"
       id="text1037-6-4"><tspan
         sodipodi:role="line"
         id="tspan1035-9-5"
         x="131.60854"
         y="62.570736"
         style="font-style:italic;font-variant:normal;font-weight:normal;font-stretch:normal;font-size:5.64444447px;font-family:sans-serif;-inkscape-font-specification:'sans-serif Italic';stroke-width:0.26458332">Noeud</tspan></text>
    <text
       xml:space="preserve"
       style="font-style:normal;font-weight:normal;font-size:10.58333302px;line-height:1.25;font-family:sans-serif;letter-spacing:0px;word-spacing:0px;fill:#000000;fill-opacity:1;stroke:none;stroke-width:0.26458332"
       x="175.41856"
       y="79.321899"
       id="text1037-6-3-2"><tspan
         sodipodi:role="line"
         id="tspan1035-9-7-5"
         x="175.41856"
         y="79.321899"
         style="font-style:italic;font-variant:normal;font-weight:normal;font-stretch:normal;font-size:5.64444447px;font-family:sans-serif;-inkscape-font-specification:'sans-serif Italic';stroke-width:0.26458332">Arc</tspan></text>
    <text
       xml:space="preserve"
       style="font-style:normal;font-weight:normal;font-size:10.58333302px;line-height:1.25;font-family:sans-serif;letter-spacing:0px;word-spacing:0px;fill:#000000;fill-opacity:1;stroke:none;stroke-width:0.26458332"
       x="138.26811"
       y="84.934555"
       id="text1037-6-3-2-4"><tspan
         sodipodi:role="line"
         id="tspan1035-9-7-5-7"
         x="138.26811"
         y="84.934555"
         style="font-style:italic;font-variant:normal;font-weight:normal;font-stretch:normal;font-size:5.64444447px;font-family:sans-serif;-inkscape-font-specification:'sans-serif Italic';stroke-width:0.26458332">Surface</tspan></text>
    <text
       xml:space="preserve"
       style="font-style:normal;font-weight:normal;font-size:10.58333302px;line-height:1.25;font-family:sans-serif;letter-spacing:0px;word-spacing:0px;fill:#000000;fill-opacity:1;stroke:none;stroke-width:0.26458332"
       x="27.378796"
       y="65.505325"
       id="text1037-6-44"><tspan
         sodipodi:role="line"
         id="tspan1035-9-3"
         x="27.378796"
         y="65.505325"
         style="font-style:italic;font-variant:normal;font-weight:normal;font-stretch:normal;font-size:5.64444447px;font-family:sans-serif;-inkscape-font-specification:'sans-serif Italic';stroke-width:0.26458332">Noeud</tspan></text>
    <text
       xml:space="preserve"
       style="font-style:normal;font-weight:normal;font-size:10.58333302px;line-height:1.25;font-family:sans-serif;letter-spacing:0px;word-spacing:0px;fill:#000000;fill-opacity:1;stroke:none;stroke-width:0.26458332"
       x="76.705841"
       y="117.38233"
       id="text1037-0"><tspan
         sodipodi:role="line"
         id="tspan1035-7"
         x="76.705841"
         y="117.38233"
         style="font-size:5.64444447px;stroke-width:0.26458332">Ligne</tspan></text>
    <text
       xml:space="preserve"
       style="font-style:normal;font-weight:normal;font-size:10.58333302px;line-height:1.25;font-family:sans-serif;letter-spacing:0px;word-spacing:0px;fill:#000000;fill-opacity:1;stroke:none;stroke-width:0.26458332"
       x="137.91057"
       y="117.38233"
       id="text1037-8"><tspan
         sodipodi:role="line"
         id="tspan1035-6"
         x="137.91057"
         y="117.38233"
         style="font-size:5.64444447px;stroke-width:0.26458332">Polygone</tspan></text>
  </g>
</svg>
